<?xml version="1.0" encoding="utf-8"?>
<!-- Generator: Adobe Illustrator 18.0.0, SVG Export Plug-In . SVG Version: 6.00 Build 0)  -->
<!DOCTYPE svg PUBLIC "-//W3C//DTD SVG 1.1//EN" "http://www.w3.org/Graphics/SVG/1.1/DTD/svg11.dtd">
<svg version="1.1" id="Layer_1" xmlns="http://www.w3.org/2000/svg" xmlns:xlink="http://www.w3.org/1999/xlink" x="0px" y="0px"
	 viewBox="0 0 90 90" enable-background="new 0 0 90 90" xml:space="preserve">
<circle fill="#C7B299" cx="45" cy="45.2" r="44"/>
<g>
	<path fill="#42322B" d="M67.2,24.4H21.9L7.1,58h75.9L67.2,24.4z M23.6,54.7l5.4-18h21l3.3,18H23.6z M57.7,47.6h-2.3v-2.9h-2.1v-2.9
		h2.2V31.3c0-1.3-1.4-2.6-3.5-2.6c-2.1,0-3.3,1.4-3.3,3.3l-1.9,0c0-1.1,0.6-5.9,5.1-5.9c4.5,0,5.8,2.9,5.8,4.7V47.6z"/>
	<rect x="7.1" y="58.9" fill="#42322B" width="75.9" height="1.8"/>
</g>
</svg>
