<?xml version="1.0" encoding="utf-8"?>
<!-- Generator: Adobe Illustrator 18.0.0, SVG Export Plug-In . SVG Version: 6.00 Build 0)  -->
<!DOCTYPE svg PUBLIC "-//W3C//DTD SVG 1.1//EN" "http://www.w3.org/Graphics/SVG/1.1/DTD/svg11.dtd">
<svg version="1.1" id="Layer_1" xmlns="http://www.w3.org/2000/svg" xmlns:xlink="http://www.w3.org/1999/xlink" x="0px" y="0px"
	 viewBox="0 0 80 90" enable-background="new 0 0 80 90" xml:space="preserve">
<g>
	<g>
		<path fill="#42322B" d="M47,76.7c-3.9-6.9-7.8-13.8-11.6-20.7c-0.1-0.2-0.2-0.5-0.3-0.7c2.6-2,4.7-1.6,6.3,1.2
			c0.9,1.6,1.8,3.3,2.9,4.9c0.3,0.5,1.3,1.1,1.7,1c1-0.4,0.6-1.3,0.3-2.1c-2.5-5.3-4.9-10.6-7.4-15.8c-0.6-1.3-1.2-2.5-1.8-3.8
			c-0.6-1.5-0.2-2.9,0.9-3.5c1.2-0.6,2.7,0,3.5,1.4c2.1,4.1,4.1,8.1,6.1,12.2c0.8,1.5,1.5,3,2.3,4.5c0.4,0.9,1,1.5,2,1.1
			c1.1-0.5,1-1.4,0.5-2.3c-3.1-6.2-6.3-12.4-9.3-18.7c-0.4-0.8-0.8-1.8-0.6-2.6c0.2-0.7,1.2-1.8,1.8-1.8c0.9,0,2.2,0.6,2.6,1.4
			c2.4,4.4,4.7,8.9,7,13.3c1,1.9,1.9,3.7,2.9,5.6c0.5,0.9,1,1.9,2.2,1.2c1.1-0.6,0.5-1.6,0.1-2.4c-2.9-5.3-5.7-10.5-8.6-15.8
			c-0.3-0.5-0.5-1.1-0.6-1.7c-0.2-1.2,0.5-1.9,1.5-2.4c1-0.5,1.9-0.2,2.6,0.7c0.6,0.8,1.2,1.8,1.7,2.7c2.7,4.8,5.4,9.6,8.2,14.4
			c0.1,0.2,0.2,0.6,0.4,0.6c0.5,0.2,1,0.4,1.5,0.6c0.1-0.5,0.3-1.1,0.1-1.5c-1-2-2-3.9-3.1-5.8c-1-1.9-2.1-3.9-3.2-5.8
			c-0.2-0.3-0.4-0.6-0.4-1c-0.2-1.1-0.3-2.4,1-2.9c1.3-0.6,2.3,0.1,3,1.2c1.5,2.7,3,5.3,4.5,8c2.8,5,5.6,10,8.3,15.1
			c0.1,0.1,0.1,0.3,0.2,0.4c0.1-2.3-0.1-4.8-0.6-7.5c-1.7-8.4,5.1-15.7,0.4-24.6c-3.2-6.1-8.5-4.6-11.5-5.8c-3-1.3-6-7.9-11.8-8.4
			c-5.8-0.5-9.4,9.1-12.8,11.9c-3.4,2.8-11.8-3.4-16.9,1.6c-5.1,5.1-8.9,16.1-6.6,25.5c2.4,9.4,8.5,11.4,10.5,20.1
			c1.9,8.4,10.5,5.1,21.9,9.1C48.1,78.3,47.5,77.6,47,76.7z"/>
	</g>
	<path fill-rule="evenodd" clip-rule="evenodd" fill="#42322B" d="M11.3,30.1c-0.7-5.1-3.7-7.9-8.7-8.9c5.1-0.9,7.9-3.8,8.6-8.9
		c1,4.8,3.5,8,8.7,8.9C14.9,22.2,12.2,25.1,11.3,30.1z"/>
	<path fill-rule="evenodd" clip-rule="evenodd" fill="#42322B" d="M7.2,41.2c-0.5-3.2-2.3-4.9-5.4-5.5c3.2-0.6,4.9-2.4,5.4-5.6
		c0.6,3,2.2,5,5.4,5.6C9.5,36.3,7.8,38.2,7.2,41.2z"/>
</g>
</svg>
