<?xml version="1.0" encoding="utf-8"?>
<!-- Generator: Adobe Illustrator 18.0.0, SVG Export Plug-In . SVG Version: 6.00 Build 0)  -->
<!DOCTYPE svg PUBLIC "-//W3C//DTD SVG 1.1//EN" "http://www.w3.org/Graphics/SVG/1.1/DTD/svg11.dtd">
<svg version="1.1" id="Layer_1" xmlns="http://www.w3.org/2000/svg" xmlns:xlink="http://www.w3.org/1999/xlink" x="0px" y="0px"
	 viewBox="0 0 80 90" enable-background="new 0 0 80 90" xml:space="preserve">
<g>
	<path fill="none" d="M39.9,65.8c11.3,0.1,20.6-9.2,20.6-20.7c0.1-11.3-9.1-20.6-20.3-20.8c-11.4-0.1-20.8,9.2-20.8,20.8
		C19.3,56.4,28.5,65.7,39.9,65.8z M39.8,28.3c9.1-0.1,16.7,7.3,16.8,16.7c0.1,9.4-7.3,16.9-16.7,17c-8.9,0-16.6-7-16.7-16.7
		C23.1,35.9,30.5,28.4,39.8,28.3z"/>
	<path fill="none" d="M39.7,55.6c5.9,0.1,10.5-4.5,10.6-10.5c0.1-5.6-4.5-10.4-10.2-10.5c-5.7-0.1-10.4,4.6-10.5,10.4
		C29.5,50.7,34,55.5,39.7,55.6z"/>
	<path fill="#42322B" d="M6.1,58.8c0.5,1.3,0.6,1.3,2,1.3c2.1-0.1,4.3-0.1,6.4-0.2c0.4,0,0.7,0.1,0.9,0.5c0.8,1.2,1.6,2.3,2.5,3.4
		c0.3,0.4,0.3,0.6,0.2,1c-0.8,2.3-1.6,4.5-2.4,6.8c-0.2,0.5-0.1,0.8,0.3,1.1c1.8,1.3,3.5,2.5,5.3,3.8c0.4,0.3,0.7,0.2,1.1-0.1
		c1.9-1.5,3.8-2.9,5.6-4.4c0.4-0.3,0.7-0.3,1.2-0.2c1.3,0.5,2.5,0.9,3.8,1.2c0.5,0.1,0.7,0.4,0.8,0.8c0.7,2.3,1.4,4.6,2,6.9
		c0.1,0.5,0.4,0.7,0.9,0.7c2.1,0,4.3,0,6.4,0c0.5,0,0.8-0.2,0.9-0.7c0.7-2.3,1.4-4.7,2-7c0.1-0.4,0.3-0.6,0.7-0.7
		c1.3-0.4,2.7-0.8,4-1.3c0.4-0.2,0.7-0.1,1,0.2c2,1.6,4.1,3.2,6.3,4.9c1.6-1.2,3.2-2.3,4.8-3.5c1.5-1.1,1.4-1.2,0.8-2.9
		c-0.7-1.9-1.4-3.9-2.1-5.8c-0.1-0.4-0.1-0.7,0.2-1c0.8-1.1,1.7-2.3,2.5-3.4c0.3-0.4,0.6-0.5,1-0.5c2.4,0.1,4.8,0.2,7.2,0.3
		c0.4,0,0.7-0.1,0.8-0.5c0.7-2.1,1.4-4.3,2.1-6.4c0.2-0.5,0-0.7-0.4-1c-2-1.3-4-2.7-6-4.1c-0.4-0.3-0.5-0.5-0.5-1c0-1.4,0-2.7,0-4.1
		c0-0.5,0.1-0.8,0.5-1.1c2-1.3,3.9-2.7,5.9-4c0.4-0.3,0.6-0.5,0.4-1c-0.7-2.1-1.4-4.2-2-6.3c-0.1-0.5-0.4-0.6-0.9-0.6
		c-2.4,0.1-4.8,0.2-7.2,0.2c-0.3,0-0.7-0.2-0.9-0.4c-0.9-1.1-1.7-2.3-2.5-3.5c-0.2-0.3-0.3-0.6-0.1-1c0.8-2.3,1.6-4.6,2.5-6.9
		c0.1-0.3,0.2-0.6-0.1-0.9c-1.1-0.8-2.1-1.7-3.2-2.5c-0.9-0.7-1.9-1.2-2.8-1.9C56,14.8,54,16.4,51.9,18c-0.5,0.4-0.8,0.4-1.3,0.2
		c-1.2-0.5-2.5-0.8-3.7-1.2c-0.4-0.1-0.7-0.3-0.8-0.8c-0.6-2.3-1.4-4.6-2-6.9c-0.2-0.6-0.4-0.8-1-0.8c-0.4,0-0.7-0.1-1.1-0.2h-3.9
		c-0.4,0.1-0.8,0.2-1.2,0.2c-0.6,0-0.9,0.2-1.1,0.8c-0.6,2.3-1.3,4.6-2,6.9c-0.1,0.4-0.3,0.6-0.7,0.7c-1.3,0.4-2.6,0.8-3.9,1.3
		c-0.4,0.2-0.7,0.1-1.1-0.2c-1.9-1.5-3.8-2.9-5.7-4.5c-0.4-0.3-0.7-0.3-1-0.1c-1.8,1.3-3.5,2.6-5.3,3.9c-0.4,0.3-0.5,0.6-0.3,1
		c0.8,2.3,1.6,4.5,2.4,6.8c0.2,0.5,0.1,0.8-0.2,1.2c-0.8,1.1-1.6,2.2-2.4,3.3c-0.3,0.4-0.6,0.6-1,0.5c-2.4-0.1-4.8-0.1-7.2-0.2
		c-0.5,0-0.7,0.1-0.9,0.6c-0.7,2.1-1.3,4.2-2,6.3c-0.1,0.2-0.1,0.3-0.2,0.5v0.3c0.9,0.6,1.8,1.1,2.6,1.7c1.3,0.9,2.7,1.8,4,2.8
		c0.2,0.2,0.4,0.5,0.4,0.8c0,1.5,0,2.9,0,4.4c0,0.2-0.1,0.5-0.2,0.6c-2.3,1.6-4.5,3.1-6.8,4.6v0.3c0.5,1.6,1,3.2,1.5,4.8
		C5.8,58,6,58.4,6.1,58.8z M40.2,24.4c11.2,0.1,20.4,9.4,20.3,20.8c-0.1,11.5-9.3,20.7-20.6,20.7c-11.4-0.1-20.5-9.4-20.5-20.6
		C19.4,33.5,28.8,24.3,40.2,24.4z"/>
	<path fill="#42322B" d="M39.9,61.9c9.4,0,16.8-7.6,16.7-17c-0.1-9.3-7.7-16.8-16.8-16.7c-9.4,0.1-16.7,7.6-16.6,16.9
		C23.3,54.9,31.1,61.9,39.9,61.9z M40.1,34.6c5.7,0.1,10.3,4.8,10.2,10.5c-0.1,6-4.8,10.6-10.6,10.5C34,55.5,29.5,50.7,29.5,45
		C29.6,39.2,34.4,34.5,40.1,34.6z"/>
</g>
</svg>
