<?xml version="1.0" encoding="utf-8"?>
<!-- Generator: Adobe Illustrator 18.1.0, SVG Export Plug-In . SVG Version: 6.00 Build 0)  -->
<svg version="1.1" id="Layer_1" xmlns="http://www.w3.org/2000/svg" xmlns:xlink="http://www.w3.org/1999/xlink" x="0px" y="0px"
	 viewBox="0 0 120 120" enable-background="new 0 0 120 120" xml:space="preserve">
<circle fill="#2A201A" cx="59.6" cy="59.5" r="57.5"/>
<rect x="2.1" y="-1" fill="none" width="115" height="115"/>
<g enable-background="new    ">
	<path fill="#C7B299" d="M34.5,58.5l34-30.4l7.5,8.6L51.3,58.5l24.7,21.7l-7.5,8.6L34.5,58.5z"/>
</g>
</svg>
