<?xml version="1.0" encoding="utf-8"?>

<!-- Generator: Adobe Illustrator 18.1.0, SVG Export Plug-In . SVG Version: 6.00 Build 0)  -->

<svg version="1.1" id="Layer_1" xmlns="http://www.w3.org/2000/svg" xmlns:xlink="http://www.w3.org/1999/xlink" x="0px" y="0px"

	 viewBox="0 0 117 117" enable-background="new 0 0 117 117" xml:space="preserve">

<circle fill="#2A201A" cx="58.5" cy="58.5" r="57.5"/>

<rect x="1" y="-2" fill="none" width="115" height="115"/>

<text transform="matrix(1 0 0 1 28.8411 86.0896)" fill="#C8B299" font-family="'Andada-Bold'" font-size="115">&lt;</text>

<circle fill="#2A201A" cx="58.5" cy="58.5" r="57.5"/>

<rect x="2.9" y="2" fill="none" width="115" height="115"/>

<text transform="matrix(-1 0 0 -1 88.0693 28.8848)" fill="#C8B299" font-family="'Andada-Bold'" font-size="115">&lt;</text>

</svg>
