<?xml version="1.0"?>
<svg xmlns="http://www.w3.org/2000/svg" id="Layer_1" viewBox="0 0 216.14 53.51">
  <defs>
    <style>.cls-1{fill:none;stroke:#010101;stroke-miterlimit:10;stroke-width:1.26px;}.cls-2{fill:#231f20;}</style>
  </defs>
  <title>estimator-logo</title>
  <rect class="cls-1" x="0.63" y="0.63" width="42.65" height="52.25" rx="2.74" ry="2.74"/>
  <rect class="cls-1" x="6.53" y="6.25" width="31.18" height="14.05" rx="3.03" ry="3.03"/>
  <rect class="cls-1" x="6.47" y="24.05" width="5.69" height="5.69" rx="0.84" ry="0.84"/>
  <rect class="cls-1" x="6.53" y="33.15" width="5.69" height="5.69" rx="0.84" ry="0.84"/>
  <rect class="cls-1" x="6.53" y="42" width="5.69" height="5.69" rx="0.84" ry="0.84"/>
  <rect class="cls-1" x="14.87" y="24.18" width="5.69" height="5.69" rx="0.84" ry="0.84"/>
  <rect class="cls-1" x="14.93" y="33.27" width="5.69" height="5.69" rx="0.84" ry="0.84"/>
  <rect class="cls-1" x="14.93" y="42.12" width="5.69" height="5.69" rx="0.84" ry="0.84"/>
  <rect class="cls-1" x="23.39" y="42" width="5.69" height="5.69" rx="0.84" ry="0.84"/>
  <rect class="cls-1" x="23.39" y="33.15" width="5.69" height="5.69" rx="0.84" ry="0.84"/>
  <rect class="cls-1" x="31.75" y="24.05" width="5.69" height="5.69" rx="0.84" ry="0.84"/>
  <rect class="cls-1" x="23.33" y="24.05" width="5.69" height="5.69" rx="0.84" ry="0.84"/>
  <rect class="cls-1" x="31.81" y="33.15" width="5.69" height="14.54" rx="1.35" ry="1.35"/>
  <path class="cls-2" d="M71.76,7.63a14.26,14.26,0,0,0-1,2.13L67.24,21.49H65.93L62.33,10.6,59.06,21.49H57.75l-3.94-12A10.67,10.67,0,0,0,53,7.7l-1.42-.22,0.11-1.16H54c0.54,0,3.16-.11,3.16-0.11l0.09,1.05-1.7.43s0.26,1.23.58,2.32l2.48,8.29L62,6.75h1.14l3.64,11.56,2.65-9.25a11,11,0,0,0,.24-1.36L68,7.48l0.11-1.16h1.94c0.75,0,3.08-.11,3.08-0.11l0.09,1.05Z" transform="translate(-3.14 -4.01)"/>
  <path class="cls-2" d="M77.35,21.71c-3.27,0-4.95-2.24-4.95-5.51s1.68-5.53,4.95-5.53,4.95,2.19,4.95,5.53S80.62,21.71,77.35,21.71Zm0-9.81c-2.22,0-2.93,2.09-2.93,4.3s0.71,4.28,2.93,4.28,2.93-2.07,2.93-4.28S79.57,11.9,77.35,11.9Z" transform="translate(-3.14 -4.01)"/>
  <path class="cls-2" d="M89,21.71C85.7,21.71,84,19.47,84,16.2S85.7,10.67,89,10.67s4.95,2.19,4.95,5.53S92.24,21.71,89,21.71Zm0-9.81C86.76,11.9,86,14,86,16.2s0.71,4.28,2.93,4.28,2.93-2.07,2.93-4.28S91.19,11.9,89,11.9Z" transform="translate(-3.14 -4.01)"/>
  <path class="cls-2" d="M106.16,21.6s-1.05-.11-2.78-0.11l-0.3-1.72a3.89,3.89,0,0,1-3.1,1.94c-2.69,0-4.33-2.09-4.33-5.53s1.72-5.51,4.52-5.51a7,7,0,0,1,2.69.52V8.26a15.57,15.57,0,0,0-.21-1.64l-1.89-.34,0.11-1.14s1.81,0.09,2.24.09h1.25l0.41,0.39s-0.15,2.22-.15,3.29v9a15.23,15.23,0,0,0,.21,2.28l1.48,0.15Zm-3.29-8.84A4.25,4.25,0,0,0,100.4,12c-1.74,0-2.75,1.55-2.75,4.22s0.95,4.13,2.5,4.13c1.72,0,2.73-1.23,2.73-3.29V12.76Z" transform="translate(-3.14 -4.01)"/>
  <path class="cls-2" d="M124.09,21.08a18.46,18.46,0,0,1-4.65.73c-4.52,0-6.82-3.21-6.82-7.9S114.92,6,119.44,6a16.75,16.75,0,0,1,4.45.73l-0.21,3.18-1.27-.09v-1a5.62,5.62,0,0,0-.26-1.08,9.37,9.37,0,0,0-2.71-.49c-3.1,0-4.61,2.93-4.61,6.65s1.51,6.67,4.58,6.67a10.79,10.79,0,0,0,2.93-.47,6.38,6.38,0,0,0,.3-1.21,9.84,9.84,0,0,0,0-1l1.27,0Z" transform="translate(-3.14 -4.01)"/>
  <path class="cls-2" d="M130.65,21.71c-3.27,0-4.95-2.24-4.95-5.51s1.68-5.53,4.95-5.53,4.95,2.19,4.95,5.53S133.92,21.71,130.65,21.71Zm0-9.81c-2.22,0-2.93,2.09-2.93,4.3s0.71,4.28,2.93,4.28,2.93-2.07,2.93-4.28S132.87,11.9,130.65,11.9Z" transform="translate(-3.14 -4.01)"/>
  <path class="cls-2" d="M143.54,10.78s1.44,0.09,1.87.09h1.25l0.41,0.39s-0.15,2.22-.15,3.29V17.9a15.19,15.19,0,0,0,.22,2.28l1.48,0.15-0.15,1.27s-1.05-.11-2.78-0.11l-0.28-1.68a3.63,3.63,0,0,1-3.34,1.89c-3,0-3.49-2-3.49-4.89V13.9a15.59,15.59,0,0,0-.21-1.64L137,11.92l0.11-1.14s1.33,0.09,1.76.09h1.25l0.41,0.39s-0.15,2.22-.15,3.29v3c0,1.59.54,2.78,2.13,2.78,1.77,0,2.71-1.64,2.71-3.36V13.9a15.59,15.59,0,0,0-.21-1.64l-1.53-.34Z" transform="translate(-3.14 -4.01)"/>
  <path class="cls-2" d="M150.08,10.78s1.55,0.09,2,.09h0.78l0.41,0.39,0.13,1.38a3.65,3.65,0,0,1,3.27-2c3,0,3.64,1.92,3.64,4.88V17.9a21.49,21.49,0,0,0,.15,2.28l1.68,0.15L162,21.6s-1.05-.11-2.78-0.11c-0.43,0-2.19.11-2.19,0.11l-0.11-1.08,1.44-.34a7.91,7.91,0,0,0,.21-1.64v-3c0-1.81-.41-3.57-2.22-3.57s-2.73,1.51-2.75,3.62v2.3a21.56,21.56,0,0,0,.15,2.28l1.68,0.15-0.15,1.27s-1.05-.11-2.78-0.11c-0.43,0-2.39.11-2.39,0.11L150,20.52l1.64-.34s0.17-1,.22-1.53V13.9a15.55,15.55,0,0,0-.22-1.64L150,11.92Z" transform="translate(-3.14 -4.01)"/>
  <path class="cls-2" d="M169.68,20.59a4.07,4.07,0,0,1-2.54,1.12c-2,0-2.67-1.21-2.67-3.57V12h-1.66l-0.06-.9a8.32,8.32,0,0,0,1.72-.62c0.17-.22,1-1.94,1-1.94l0.75,0.09v2.22h3L169.12,12h-2.91v6.63c0,1.08.37,1.68,1.16,1.68a3.78,3.78,0,0,0,1.7-.62Z" transform="translate(-3.14 -4.01)"/>
  <path class="cls-2" d="M179.41,15.68l-0.37.71h-6.43c0.06,1.94,1,3.92,2.93,3.92a6.52,6.52,0,0,0,3.21-.88l0.6,1a5.84,5.84,0,0,1-3.81,1.29c-3.25,0-4.95-2.24-4.95-5.49s1.53-5.55,4.69-5.55C178.29,10.67,179.41,12.67,179.41,15.68Zm-6.78-.37,4.78-.37s0-.32,0-0.43c0-1.53-.71-2.73-2.24-2.73C173.42,11.79,172.78,13.53,172.63,15.32Z" transform="translate(-3.14 -4.01)"/>
  <path class="cls-2" d="M184.18,12.67a3.74,3.74,0,0,1,3.46-2,5.33,5.33,0,0,1,1.46.21l-0.21,3.55-1.25-.06V13.23a6.76,6.76,0,0,0-.3-1.08h-0.09c-2,0-2.8,1.2-2.88,3.23V17.9a21.56,21.56,0,0,0,.15,2.28l2.11,0.15-0.15,1.27s-1.49-.11-3.21-0.11c-0.43,0-2.39.11-2.39,0.11l-0.11-1.08,1.64-.34a15.54,15.54,0,0,0,.22-1.64V13.9a15.55,15.55,0,0,0-.22-1.64l-1.64-.34,0.11-1.14s1.55,0.09,2,.09h0.78l0.41,0.39Z" transform="translate(-3.14 -4.01)"/>
  <path class="cls-2" d="M196.45,20.59a4.07,4.07,0,0,1-2.54,1.12c-2,0-2.67-1.21-2.67-3.57V12h-1.66l-0.06-.9a8.32,8.32,0,0,0,1.72-.62c0.17-.22,1-1.94,1-1.94L193,8.65v2.22h3L195.89,12H193v6.63c0,1.08.37,1.68,1.16,1.68a3.78,3.78,0,0,0,1.7-.62Z" transform="translate(-3.14 -4.01)"/>
  <path class="cls-2" d="M202.3,21.71c-3.27,0-4.95-2.24-4.95-5.51s1.68-5.53,4.95-5.53,4.95,2.19,4.95,5.53S205.57,21.71,202.3,21.71Zm0-9.81c-2.22,0-2.93,2.09-2.93,4.3s0.71,4.28,2.93,4.28,2.93-2.07,2.93-4.28S204.52,11.9,202.3,11.9Z" transform="translate(-3.14 -4.01)"/>
  <path class="cls-2" d="M219.28,16c0,3.31-2.09,5.72-4.95,5.72a5.78,5.78,0,0,1-2.3-.54v1.64a21.49,21.49,0,0,0,.15,2.28l2.11,0.15-0.15,1.27s-1.46-.11-3.18-0.11c-0.65,0-2.19.11-2.19,0.11l-0.11-1.08,1.42-.34a10.87,10.87,0,0,0,.21-1.53V13.9a15.59,15.59,0,0,0-.21-1.64l-1.64-.34,0.11-1.14s1.55,0.09,2,.09h0.77l0.41,0.39,0.13,1.38a3.66,3.66,0,0,1,3-2C217.66,10.67,219.28,12.61,219.28,16Zm-7.25-.6v4.26a3.94,3.94,0,0,0,2.17.77c2,0,3.14-1.55,3.14-4.39,0-2.67-.9-4-2.65-4S212,13.34,212,15.38Z" transform="translate(-3.14 -4.01)"/>
  <path class="cls-2" d="M53.38,26.69s3.66,0.19,4.42.19h8.54c0.76,0,4.35-.38,4.35-0.38l0.72,0.69,0.27,5.19-2.21.19a17.88,17.88,0,0,0-.42-2.06,4.08,4.08,0,0,0-.76-1.3c-0.84-.08-2-0.19-3.09-0.19h-5c-0.08.8-.27,2.75-0.27,4.23v5.42c0.65,0,1.34.08,1.64,0.08h2.78a14.85,14.85,0,0,0,2.29-.34L67,35.88l1.76,0.19s0,2.44,0,3.2c0,1.91.11,4.16,0.11,4.16L67,43.66,66.65,41.1s-2.29-.23-3.05-0.23h-2a16.09,16.09,0,0,0-1.64.11V47.4c0,1.53.19,3.47,0.27,4.2H65.7A19.74,19.74,0,0,0,69,51.25a5.06,5.06,0,0,0,.8-1.41c0.11-.57.5-1.95,0.57-2.56l2.1,0.19-0.57,5.76-0.72.69s-3.59-.15-4.35-0.15h-9c-0.76,0-4.5.19-4.5,0.19l-0.19-1.91,3-.61c0.08-.5.34-2.25,0.34-2.9V32.1c0-.65-0.27-2.4-0.34-2.9l-2.94-.46Z" transform="translate(-3.14 -4.01)"/>
  <path class="cls-2" d="M87.67,35.23l-0.46,5.45L85,40.57V39.2A11.45,11.45,0,0,0,84.47,37a5.89,5.89,0,0,0-2.56-.46c-1.87,0-3.09.92-3.09,2.48,0,3.89,9.73,3.51,9.73,9.54,0,4-2.56,5.57-6.71,5.57a13.37,13.37,0,0,1-6.29-1.49L76,47.47l2.21,0.11V49a10.06,10.06,0,0,0,.57,2.25,5,5,0,0,0,3.2.92c2.14,0,3.47-.88,3.47-2.9,0-4-9.65-3.47-9.65-9.65,0-3.2,2.63-5.07,6.18-5.07A29.22,29.22,0,0,1,87.67,35.23Z" transform="translate(-3.14 -4.01)"/>
  <path class="cls-2" d="M103.08,52.17a7.22,7.22,0,0,1-4.5,2c-3.62,0-4.73-2.14-4.73-6.33V37H90.91l-0.11-1.6a14.73,14.73,0,0,0,3.05-1.11c0.31-.38,1.76-3.43,1.76-3.43L96.94,31v3.93h5.34L102.09,37H96.94V48.73c0,1.91.65,3,2.06,3a6.71,6.71,0,0,0,3-1.11Z" transform="translate(-3.14 -4.01)"/>
  <path class="cls-2" d="M113.88,54S112,53.77,109,53.77c-0.76,0-4.23.19-4.23,0.19l-0.19-1.91,2.9-.61a27.57,27.57,0,0,0,.38-2.9V40.3a27.57,27.57,0,0,0-.38-2.9l-2.9-.61,0.19-2s2.75,0.15,3.51.15h2.21l0.72,0.69s-0.27,3.93-.27,5.84v6a38.19,38.19,0,0,0,.27,4l3,0.27Zm-2.25-25.18a2.26,2.26,0,1,1-4.5,0,2.21,2.21,0,0,1,2.25-2.48A2.17,2.17,0,0,1,111.62,28.78Z" transform="translate(-3.14 -4.01)"/>
  <path class="cls-2" d="M133.06,38.21a6.87,6.87,0,0,1,6-3.62c4.84,0,5.91,3.39,5.91,8.66V47.4a38.19,38.19,0,0,0,.27,4l3,0.27L147.94,54s-1.87-.19-4.92-0.19c-0.76,0-3.89.19-3.89,0.19l-0.19-1.91,2.56-.61a14,14,0,0,0,.38-2.9v-5.3c0-3.2-.61-6.33-3.47-6.33s-4.62,2.48-4.73,6.06V47.4a38.19,38.19,0,0,0,.27,4l3,0.27L136.65,54s-1.87-.19-4.92-0.19c-0.76,0-3.89.19-3.89,0.19l-0.19-1.91,2.56-.61a14,14,0,0,0,.38-2.9v-5.3c0-3.2-.61-6.33-3.47-6.33s-4.69,2.67-4.73,6.41V47.4a38.19,38.19,0,0,0,.27,4l3,0.27L125.36,54s-1.87-.19-4.92-0.19c-0.76,0-4.23.19-4.23,0.19L116,52.05l2.9-.61s0.31-1.83.38-2.71V40.3a27.57,27.57,0,0,0-.38-2.9l-2.9-.61,0.19-2s2.75,0.15,3.51.15h1.37l0.72,0.69L122,38.05a6.38,6.38,0,0,1,5.72-3.47C130.77,34.58,132.34,35.92,133.06,38.21Z" transform="translate(-3.14 -4.01)"/>
  <path class="cls-2" d="M161.9,50.76a7.09,7.09,0,0,1-6.06,3.39c-3.39,0-5.53-1.91-5.53-4.88,0-2.75,1.68-4.5,5.11-5.07l6.1-1V41.91c0-3.55-1.18-5.26-3.59-5.26a9,9,0,0,0-3.62.76L154,39v1.56l-2.21.11-0.42-5.19a26.83,26.83,0,0,1,6.9-.92c4.54,0,6.29,2.25,6.29,8.09V47.4a27,27,0,0,0,.38,4l2.63,0.27L167.35,54s-1.87-.19-4.92-0.19Zm-5.84-4.62a2.57,2.57,0,0,0-2.4,2.56c0,1.91,1,3,2.78,3a5.1,5.1,0,0,0,5.07-4.31V45.11Z" transform="translate(-3.14 -4.01)"/>
  <path class="cls-2" d="M181.31,52.17a7.22,7.22,0,0,1-4.5,2c-3.62,0-4.73-2.14-4.73-6.33V37h-2.94L169,35.38a14.75,14.75,0,0,0,3.05-1.11c0.3-.38,1.75-3.43,1.75-3.43L175.17,31v3.93h5.34L180.32,37h-5.15V48.73c0,1.91.65,3,2.06,3a6.71,6.71,0,0,0,3-1.11Z" transform="translate(-3.14 -4.01)"/>
  <path class="cls-2" d="M191.69,54.15c-5.8,0-8.77-4-8.77-9.77s3-9.8,8.77-9.8,8.77,3.89,8.77,9.8S197.49,54.15,191.69,54.15Zm0-17.39c-3.93,0-5.19,3.7-5.19,7.63S187.76,52,191.69,52s5.19-3.66,5.19-7.59S195.62,36.76,191.69,36.76Z" transform="translate(-3.14 -4.01)"/>
  <path class="cls-2" d="M209.39,38.13a6.62,6.62,0,0,1,6.14-3.55,9.43,9.43,0,0,1,2.59.38l-0.38,6.29-2.21-.11v-2a12.06,12.06,0,0,0-.53-1.91h-0.15c-3.51,0-5,2.14-5.11,5.72V47.4a38.19,38.19,0,0,0,.27,4l3.74,0.27L213.47,54s-2.63-.19-5.68-0.19c-0.76,0-4.23.19-4.23,0.19l-0.19-1.91,2.9-.61a27.57,27.57,0,0,0,.38-2.9V40.3a27.57,27.57,0,0,0-.38-2.9l-2.9-.61,0.19-2s2.75,0.15,3.51.15h1.37l0.72,0.69Z" transform="translate(-3.14 -4.01)"/>
</svg>
