<?xml version="1.0" encoding="utf-8"?>
<!-- Generator: Adobe Illustrator 19.2.1, SVG Export Plug-In . SVG Version: 6.00 Build 0)  -->
<svg xmlns="http://www.w3.org/2000/svg" xmlns:xlink="http://www.w3.org/1999/xlink" version="1.1" id="Layer_1" x="0px" y="0px" viewBox="0 0 120 120" style="enable-background:new 0 0 120 120;" xml:space="preserve">
<style type="text/css">
	.st0{fill:#C7B299;}
	.st1{fill:#43332B;}
</style>
<circle class="st0" cx="60" cy="60.3" r="58.7"/>
<g id="yoXXty_1_">
	<g>
		<path class="st1" d="M31.1,58.8c0-10.8,0-21.7,0-32.5c0-2.4,1.3-4.2,3.5-4.8c0.5-0.1,1-0.2,1.5-0.2c12,0,24,0,35.9,0    c0.3,0,0.7,0.2,0.9,0.4c6,6,12,12,18.1,18c0.3,0.3,0.4,0.5,0.4,0.9c0,16.9,0,33.8,0,50.7c0,3-2,5-5.1,5c-16.7,0-33.4,0-50.1,0    c-3.1,0-5.1-2-5.1-5.1C31.1,80.4,31.1,69.6,31.1,58.8z M37.5,27.8c0,20.8,0,41.5,0,62.2c15.9,0,31.7,0,47.6,0    c0-15.9,0-31.7,0-47.6c-4.9,0-9.8,0-14.8,0c0-4.9,0-9.8,0-14.6C59.3,27.8,48.4,27.8,37.5,27.8z"/>
		<path class="st1" d="M43.5,53.7c0-1.1,0-2.3,0-3.5c0.2,0,0.5,0,0.7,0c11.4,0,22.9,0,34.3,0c0.6,0,0.7,0.2,0.7,0.7    c0,0.9,0,1.8,0,2.8C67.2,53.7,55.4,53.7,43.5,53.7z"/>
		<path class="st1" d="M43.5,62.4c0-1.1,0-2.3,0-3.5c0.2,0,0.4,0,0.6,0c11.4,0,22.9,0,34.3,0c0.6,0,0.7,0.2,0.7,0.7    c0,0.9,0,1.8,0,2.8C67.2,62.4,55.4,62.4,43.5,62.4z"/>
		<path class="st1" d="M79.1,67.8c0,1.1,0,2.2,0,3.4c-11.9,0-23.7,0-35.6,0c0-1.1,0-2.2,0-3.4C55.3,67.8,67.2,67.8,79.1,67.8z"/>
		<path class="st1" d="M43.5,80c0-1.1,0-2.3,0-3.4c11.9,0,23.7,0,35.6,0c0,1.1,0,2.2,0,3.4C67.2,80,55.4,80,43.5,80z"/>
		<path class="st1" d="M60.4,36.1c0,1.5,0,2.9,0,4.3c-5.6,0-11.3,0-16.9,0c0-1.4,0-2.9,0-4.3C49.1,36.1,54.7,36.1,60.4,36.1z"/>
	</g>
</g>
</svg>
