<?xml version="1.0" encoding="utf-8"?>
<!-- Generator: Adobe Illustrator 20.1.0, SVG Export Plug-In . SVG Version: 6.00 Build 0)  -->
<svg version="1.1" id="Layer_1" xmlns="http://www.w3.org/2000/svg" xmlns:xlink="http://www.w3.org/1999/xlink" x="0px" y="0px"
	 viewBox="0 0 263.4 52" style="enable-background:new 0 0 263.4 52;" xml:space="preserve">
<style type="text/css">
	.st0{fill:#FFFFFF;}
</style>
<title>custom-millwork-estimate</title>
<path class="st0" d="M0.6,23.1c0,0,3.6,0.2,4.4,0.2h8.5c0.8,0,4.3-0.4,4.3-0.4l0.7,0.7l0.3,5.2l-2.2,0.2c-0.1-0.7-0.2-1.3-0.4-2
	c-0.2-0.5-0.4-1-0.8-1.4c-0.8-0.1-2-0.2-3.1-0.2h-5c-0.1,0.8-0.3,2.7-0.3,4.2v5.4c0.6,0,1.3,0.1,1.6,0.1h2.8
	c0.8-0.1,1.5-0.2,2.3-0.3l0.3-2.5l1.7,0.2c0,0,0,2.4,0,3.2c0,1.9,0.1,4.1,0.1,4.1l-1.8,0.2l-0.3-2.5c0,0-2.3-0.2-3-0.2h-2
	c-0.5,0-1.1,0-1.6,0.1v6.4c0,1.5,0.2,3.5,0.3,4.2H13c1.1,0,2.2-0.1,3.3-0.3c0.3-0.4,0.6-0.9,0.8-1.4c0.1-0.6,0.5-1.9,0.6-2.5
	l2.1,0.2L19,49.5l-0.7,0.7c0,0-3.6-0.2-4.3-0.2H5c-0.8,0-4.5,0.2-4.5,0.2l-0.2-1.9l3-0.6c0.1-0.5,0.3-2.2,0.3-2.9V28.5
	c0-0.6-0.3-2.4-0.3-2.9l-2.9-0.5L0.6,23.1z"/>
<path class="st0" d="M34.7,31.5L34.3,37L32,36.9v-1.3c-0.1-0.7-0.3-1.5-0.5-2.2c-0.8-0.3-1.6-0.5-2.5-0.5c-1.9,0-3.1,0.9-3.1,2.5
	c0,3.9,9.7,3.5,9.7,9.5c0,4-2.5,5.5-6.7,5.5c-2.2,0-4.3-0.5-6.3-1.5l0.3-5.2l2.2,0.1v1.4c0.1,0.8,0.3,1.5,0.6,2.2
	c0.9,0.7,2.1,1,3.2,0.9c2.1,0,3.5-0.9,3.5-2.9c0-4-9.6-3.5-9.6-9.6c0-3.2,2.6-5,6.1-5C31,31,32.9,31.2,34.7,31.5z"/>
<path class="st0" d="M50,48.4c-1.2,1.2-2.8,1.9-4.5,2c-3.6,0-4.7-2.1-4.7-6.3V33.3H38l-0.1-1.6c1-0.3,2-0.6,3-1.1
	c0.3-0.4,1.8-3.4,1.8-3.4l1.3,0.1v3.9h5.3l-0.2,2H44V45c0,1.9,0.7,3,2,3c1.1-0.1,2.1-0.5,3-1.1L50,48.4z"/>
<path class="st0" d="M60.8,50.2c0,0-1.9-0.2-4.9-0.2c-0.8,0-4.2,0.2-4.2,0.2l-0.2-1.9l2.9-0.6c0.2-1,0.3-1.9,0.4-2.9v-8.2
	c-0.1-1-0.2-1.9-0.4-2.9l-2.9-0.6l0.2-2c0,0,2.7,0.1,3.5,0.1h2.2l0.7,0.7c0,0-0.3,3.9-0.3,5.8v5.9c0,1.3,0.1,2.7,0.3,4l3,0.3
	L60.8,50.2z M58.6,25.2c0.1,1.2-0.8,2.3-2,2.5c-1.2,0.1-2.3-0.8-2.5-2c0-0.1,0-0.3,0-0.4c-0.1-1.2,0.7-2.3,1.9-2.5
	c0.1,0,0.2,0,0.3,0c1.2-0.1,2.2,0.9,2.3,2.1C58.6,24.9,58.6,25,58.6,25.2z"/>
<path class="st0" d="M79.9,34.5c1.2-2.2,3.5-3.6,6-3.6c4.8,0,5.9,3.4,5.9,8.6v4.1c0,1.3,0.1,2.7,0.3,4l3,0.3l-0.3,2.2
	c0,0-1.9-0.2-4.9-0.2c-0.8,0-3.9,0.2-3.9,0.2l-0.2-1.9l2.5-0.6c0.2-0.9,0.4-1.9,0.4-2.9v-5.3c0-3.2-0.6-6.3-3.4-6.3s-4.6,2.5-4.7,6
	v4.4c0,1.3,0.1,2.7,0.3,4l3,0.3l-0.3,2.2c0,0-1.9-0.2-4.9-0.2c-0.8,0-3.9,0.2-3.9,0.2l-0.2-1.9l2.4-0.5c0.2-0.9,0.4-1.9,0.4-2.9
	v-5.3c0-3.2-0.6-6.3-3.4-6.3s-4.7,2.7-4.7,6.4v4.1c0,1.3,0.1,2.7,0.3,4l3,0.3l-0.3,2.2c0,0-1.9-0.2-4.9-0.2c-0.8,0-4.2,0.2-4.2,0.2
	L63,48.3l2.9-0.6c0,0,0.3-1.8,0.4-2.7v-8.4c-0.1-1-0.2-1.9-0.4-2.9L63,33.1l0.2-2c0,0,2.7,0.1,3.5,0.1H68l0.7,0.7l0.2,2.4
	c1.1-2.1,3.3-3.5,5.7-3.5C77.6,30.9,79.2,32.2,79.9,34.5z"/>
<path class="st0" d="M108.6,47c-1.3,2.1-3.5,3.4-6,3.4c-3.4,0-5.6-1.9-5.6-4.9c0-2.7,1.7-4.5,5.1-5l6.1-1v-1.3
	c0-3.5-1.2-5.2-3.6-5.2c-1.2,0-2.5,0.3-3.6,0.8l-0.3,1.6v1.6L98.5,37l-0.4-5.2c2.2-0.6,4.6-0.9,6.9-0.9c4.5,0,6.3,2.2,6.3,8v4.7
	c0,1.3,0.2,2.7,0.4,4l2.6,0.3l-0.2,2.3c0,0-1.9-0.2-4.9-0.2L108.6,47z M102.8,42.4c-1.3,0.1-2.4,1.2-2.4,2.5c0,1.9,1,3,2.8,3
	c2.5,0,4.6-1.8,5-4.3v-2.3L102.8,42.4z"/>
<path class="st0" d="M127.9,48.4c-1.2,1.2-2.8,1.9-4.5,2c-3.6,0-4.7-2.1-4.7-6.3V33.3h-2.9l-0.1-1.6c1-0.3,2-0.6,3-1.1
	c0.3-0.4,1.8-3.4,1.8-3.4l1.3,0.1v3.9h5.3l-0.2,2h-5.1V45c0,1.9,0.7,3,2,3c1.1-0.1,2.1-0.5,3-1.1L127.9,48.4z"/>
<path class="st0" d="M145,39.8l-0.6,1.2h-11.3c0.1,3.4,1.8,6.9,5.2,6.9c2,0,3.9-0.6,5.7-1.6l1.1,1.8c-1.9,1.5-4.3,2.3-6.7,2.3
	c-5.7,0-8.7-4-8.7-9.7s2.7-9.8,8.3-9.8C143.1,30.9,145,34.5,145,39.8z M133,39.1l8.4-0.7c0,0,0-0.6,0-0.8c0-2.7-1.2-4.8-3.9-4.8
	C134.5,32.9,133.4,36,133,39.1L133,39.1z"/>
<path class="st0" d="M11.7,17.5C10.2,18,8.6,18.2,7,18.3c-4.6,0-6.9-3.2-6.9-8s2.3-8,6.9-8c1.5,0,3,0.3,4.5,0.7l-0.2,3.2l-1.3,0v-1
	C10,4.8,9.9,4.5,9.8,4.1C8.9,3.8,8,3.6,7,3.6c-3.1,0-4.7,2.9-4.7,6.7S3.9,17,7,17c1,0,2-0.2,2.9-0.5c0.1-0.4,0.2-0.8,0.3-1.2
	c0-0.3,0-0.7,0-1h1.3L11.7,17.5z"/>
<path class="st0" d="M19.6,7.2c0,0,1.5,0.1,1.9,0.1h1.3l0.4,0.4c0,0-0.1,2.2-0.1,3.3v3.4c0,0.8,0.1,1.5,0.2,2.3l1.5,0.1l-0.1,1.3
	c0,0-1.1-0.1-2.8-0.1l-0.3-1.7c-0.7,1.2-2,2-3.4,1.9c-3,0-3.5-2-3.5-4.9v-2.9c0-0.6-0.1-1.1-0.2-1.6L13,8.3l0-1.1
	c0,0,1.3,0.1,1.8,0.1h1.3l0.4,0.4c0,0-0.1,2.2-0.1,3.3v3c0,1.6,0.5,2.8,2.1,2.8c1.8,0,2.7-1.6,2.7-3.4v-3.1c0-0.6-0.1-1.1-0.2-1.7
	l-1.5-0.3L19.6,7.2z"/>
<path class="st0" d="M33,7.4l-0.2,3.1l-1.3-0.1V9.7c-0.1-0.4-0.2-0.8-0.3-1.2c-0.5-0.2-1-0.3-1.5-0.3c-1.1,0-1.8,0.5-1.8,1.4
	c0,2.2,5.5,2,5.5,5.4c0,2.3-1.5,3.2-3.8,3.2c-1.2,0-2.5-0.3-3.6-0.9l0.2-2.9l1.3,0.1v0.8c0.1,0.5,0.2,0.9,0.4,1.3
	c0.5,0.4,1.2,0.6,1.8,0.5c1.2,0,2-0.5,2-1.6c0-2.3-5.5-2-5.5-5.5c0-1.8,1.5-2.9,3.5-2.9C30.9,7.1,32,7.2,33,7.4z"/>
<path class="st0" d="M41.8,17c-0.7,0.7-1.6,1.1-2.6,1.1c-2.1,0-2.7-1.2-2.7-3.6V8.4h-1.7l-0.1-0.9c0.6-0.1,1.2-0.4,1.7-0.6
	c0.2-0.2,1-1.9,1-1.9L38.3,5v2.2h3l-0.1,1.2h-2.9v6.7c0,1.1,0.4,1.7,1.2,1.7c0.6-0.1,1.2-0.3,1.7-0.6L41.8,17z"/>
<path class="st0" d="M47.7,18.2c-3.3,0-5-2.2-5-5.6s1.7-5.6,5-5.6s5,2.2,5,5.6S51,18.2,47.7,18.2z M47.7,8.3c-2.2,0-3,2.1-3,4.3
	s0.7,4.3,3,4.3s3-2.1,3-4.3S50,8.3,47.7,8.3z"/>
<path class="st0" d="M64,9.1c0.7-1.3,2-2,3.4-2.1c2.8,0,3.4,1.9,3.4,4.9v2.4c0,0.8,0.1,1.5,0.2,2.3l1.7,0.1l-0.2,1.3
	c0,0-1.1-0.1-2.8-0.1c-0.4,0-2.2,0.1-2.2,0.1L67.4,17l1.4-0.4C69,16.1,69,15.5,69,15v-3c0-1.8-0.3-3.6-2-3.6s-2.6,1.4-2.7,3.4v2.5
	c0,0.8,0.1,1.5,0.2,2.3l1.7,0.1L66,18c0,0-1.1-0.1-2.8-0.1C62.8,17.9,61,18,61,18L60.9,17l1.5-0.4c0.1-0.5,0.2-1.1,0.2-1.6v-3
	c0-1.8-0.3-3.6-2-3.6S58,9.9,58,12v2.3c0,0.8,0.1,1.5,0.2,2.3l1.7,0.1l-0.2,1.3c0,0-1.1-0.1-2.8-0.1c-0.4,0-2.4,0.1-2.4,0.1L54.4,17
	l1.7-0.4c0,0,0.2-1,0.2-1.5v-4.8c0-0.6-0.1-1.1-0.2-1.7l-1.7-0.3l0.1-1.2c0,0,1.6,0.1,2,0.1h0.8l0.4,0.4L57.8,9c0.6-1.2,1.9-2,3.2-2
	C62.4,6.9,63.7,7.8,64,9.1z"/>
<path class="st0" d="M92.9,2.7c1.7,0,3.4-0.1,3.4-0.1l0.1,1.3L94.6,4c0,0.3-0.1,1.3-0.1,1.6l0.7,9.5c0.1,0.4,0.3,1.3,0.3,1.5
	l1.8,0.1L97.2,18c0,0-1.4-0.1-3.2-0.1c-0.4,0-2.6,0.1-2.6,0.1L91.4,17l1.6-0.3c0-0.3,0.1-1.6,0.1-2.2l-0.6-9.1l-4.7,12.7H87
	L82.3,5.3l-0.5,9.1c0,0.6,0.1,1.8,0.1,2.2l1.8,0.1L83.5,18c0,0-1.1-0.1-2.8-0.1c-0.4,0-2.3,0.1-2.3,0.1L78.3,17l1.7-0.4
	c0.1-0.3,0.3-1.2,0.4-1.5l0.6-9.5c0-0.4,0-1.3-0.1-1.6L79,3.7l0.1-1.2c0,0,2.6,0.1,3,0.1h1.2l0.4,0.5c0,0,0.9,2.9,1.1,3.4l2.9,7.7
	l2.9-7.8c0.2-0.5,1.2-3.2,1.2-3.2l0.4-0.4L92.9,2.7z"/>
<path class="st0" d="M103.9,18c0,0-1.1-0.1-2.8-0.1c-0.4,0-2.4,0.1-2.4,0.1L98.6,17l1.7-0.4c0.1-0.5,0.2-1.1,0.2-1.6v-4.7
	c0-0.6-0.1-1.1-0.2-1.6l-1.7-0.3l0.1-1.2c0,0,1.6,0.1,2,0.1h1.3l0.4,0.4c0,0-0.2,2.2-0.2,3.3v3.4c0,0.8,0.1,1.5,0.2,2.3l1.7,0.1
	L103.9,18z M102.6,3.7c0,0.7-0.6,1.3-1.3,1.3c-0.7,0-1.3-0.6-1.3-1.3c0,0,0,0,0,0c-0.1-0.7,0.4-1.3,1.1-1.4c0.1,0,0.1,0,0.2,0
	c0.7,0,1.3,0.5,1.3,1.2C102.6,3.6,102.6,3.7,102.6,3.7z"/>
<path class="st0" d="M104.9,1.5c0,0,1.6,0.1,2,0.1h1.3l0.4,0.4c-0.1,0.7-0.2,2.3-0.2,3.3v9.1c0,1,0.1,2.1,0.1,2.3l1.7,0.1L110,18
	c0,0-1.1-0.1-2.8-0.1c-0.4,0-2.4,0.1-2.4,0.1l-0.1-1.1l1.7-0.4c0.1-0.5,0.2-1.1,0.2-1.6V4.6c0-0.6-0.1-1.1-0.2-1.7l-1.7-0.3
	L104.9,1.5z"/>
<path class="st0" d="M111.2,1.5c0,0,1.6,0.1,2,0.1h1.3l0.4,0.4c-0.1,0.7-0.2,2.3-0.2,3.3v9.1c0,1,0.1,2.1,0.1,2.3l1.7,0.1l-0.2,1.3
	c0,0-1.1-0.1-2.8-0.1c-0.4,0-2.4,0.1-2.4,0.1l-0.1-1.1l1.7-0.4c0.1-0.5,0.2-1.1,0.2-1.6V4.6c0-0.6-0.1-1.1-0.2-1.7l-1.7-0.3
	L111.2,1.5z"/>
<path class="st0" d="M132.9,8.5c-0.4,0.9-1,2.2-1.1,2.5l-2.5,6.9h-1.5l-2.6-7.3l-2.5,7.3h-1.5c0,0-2.7-7-2.8-7.4
	c-0.3-0.7-0.6-1.4-0.9-2l-0.9-0.2l0.1-1.1c0,0,1.1,0.1,1.5,0.1c1.7,0,3.2-0.1,3.2-0.1l0.1,1.3l-1.7,0.2c0.2,0.7,0.4,1.6,0.5,1.8
	l1.9,5.3l2.8-8.5h0.8l2.9,8.5l1.8-5.4c0.1-0.3,0.3-1.1,0.4-1.8l-1.8-0.2l0.1-1.1c0,0,1.6,0.1,2,0.1c0.8,0,1.6,0,2.4-0.1l0.1,1.3
	L132.9,8.5z"/>
<path class="st0" d="M139.1,18.2c-3.3,0-5-2.2-5-5.6s1.7-5.6,5-5.6s5,2.2,5,5.6S142.4,18.2,139.1,18.2z M139.1,8.3
	c-2.2,0-2.9,2.1-2.9,4.3s0.7,4.3,2.9,4.3s2.9-2.1,2.9-4.3S141.4,8.3,139.1,8.3z"/>
<path class="st0" d="M149.2,9.1c0.7-1.3,2-2.1,3.5-2c0.5,0,1,0.1,1.5,0.2l-0.2,3.6l-1.3-0.1V9.6c-0.1-0.4-0.2-0.7-0.3-1.1h-0.1
	c-2,0-2.8,1.2-2.9,3.2v2.5c0,0.8,0.1,1.5,0.1,2.3l2.1,0.1l-0.1,1.3c0,0-1.5-0.1-3.2-0.1c-0.4,0-2.4,0.1-2.4,0.1l-0.1-1.1l1.6-0.4
	c0.1-0.5,0.2-1.1,0.2-1.6v-4.7c0-0.6-0.1-1.1-0.2-1.6l-1.6-0.3l0.1-1.2c0,0,1.6,0.1,2,0.1h0.8l0.4,0.4L149.2,9.1z"/>
<path class="st0" d="M154.7,1.5c0,0,1.6,0.1,2,0.1h1.3l0.4,0.4c-0.1,0.7-0.1,2.3-0.1,3.3v9.1c0,1,0.1,2.1,0.1,2.3l1.7,0.1l-0.1,1.3
	c0,0-1.1-0.1-2.8-0.1c-0.4,0-2.4,0.1-2.4,0.1l-0.1-1.1l1.7-0.4c0.1-0.5,0.2-1.1,0.2-1.6V4.6c0-0.6-0.1-1.1-0.2-1.7l-1.6-0.3
	L154.7,1.5z M161,8.3l0.1-1.1c0,0,1.4,0.1,1.9,0.1c1.7,0,2.8-0.1,2.8-0.1l0.1,1.3l-1.6,0.2c-0.8,0.4-1.5,0.9-2.2,1.5l-1.8,1.9l3,3.2
	c0.2,0.3,1.2,1,2,1.5l1.4,0.1l-0.1,1.3c0,0-1.1-0.1-2.8-0.1h-2.2l-0.1-1.1l1.2-0.2l-1.1-1.2l-3.1-3.2l3.6-3.7L161,8.3z"/>
<path class="st0" d="M183,22.1h8.6c0.6,0,0.8-0.2,0.8-0.8v-6.8c-0.1-1,0.5-2,1.4-2.5c1-0.5,2.2-0.4,3,0.4l7.9,6.5
	c2.4,2,4.9,4.1,7.4,6.1c1.2,0.8,1.5,2.5,0.7,3.7c-0.2,0.3-0.5,0.5-0.7,0.7c-5,4.2-10,8.4-15.1,12.6c-0.8,0.8-2,1-3.1,0.5
	c-1-0.5-1.6-1.5-1.5-2.6v-6.6c0-0.7-0.2-0.8-0.9-0.8h-16.8c-1.4,0.1-2.7-0.9-2.8-2.4c0-0.2,0-0.4,0-0.5v-4.8
	c-0.1-1.4,0.9-2.7,2.4-2.8c0.2,0,0.3,0,0.5,0H183z"/>
</svg>
