<?xml version="1.0" encoding="utf-8"?>
<!-- Generator: Adobe Illustrator 18.0.0, SVG Export Plug-In . SVG Version: 6.00 Build 0)  -->
<!DOCTYPE svg PUBLIC "-//W3C//DTD SVG 1.1//EN" "http://www.w3.org/Graphics/SVG/1.1/DTD/svg11.dtd">
<svg version="1.1" id="Layer_1" xmlns="http://www.w3.org/2000/svg" xmlns:xlink="http://www.w3.org/1999/xlink" x="0px" y="0px"
	 viewBox="0 0 80 90" enable-background="new 0 0 80 90" xml:space="preserve">
<g>
	<path fill-rule="evenodd" clip-rule="evenodd" fill="none" stroke="#42322B" stroke-width="1.788" stroke-miterlimit="10" d="
		M20,75.9c0.2,3.1,2.9,5.6,6,5.6h26.4c3.1,0,5.7-2.5,5.9-5.6l3.9-64c0.2-3.1-2.2-5.6-5.2-5.6H20.5c-3.1,0-5.4,2.5-5.2,5.6L20,75.9z
		 M58.6,24.4l-1,12.3l-1.8,31.2c-0.2,3-2.8,5.5-5.8,5.5H28.1c-3,0-5.6-2.5-5.8-5.5L19.9,30c0-0.2,0-0.5,0-0.7l-0.3-5H58.6z"/>
	<path fill="#42322B" d="M20.5,38.8l-0.6-9.5c0,0.2,0,0.4,0,0.7l2.3,37.8c0.2,3,2.8,5.5,5.8,5.5h21.9c3,0,5.6-2.5,5.8-5.5l1.8-31.2
		l-0.2,2.2H20.5z"/>
	<path fill="#42322B" d="M25.1,24.5h27.7c3,0,5.3,2.5,5.2,5.5l-0.4,6.7l1-12.3H19.7l0.3,5C20.1,26.6,22.3,24.5,25.1,24.5z"/>
	<path fill="#42322B" d="M52.8,24.5H25.1c-2.8,0-5,2.1-5.2,4.8l0.6,11.8h36.9l0.2-4.5L58,30C58.2,27,55.8,24.5,52.8,24.5z"/>
</g>
</svg>
