<?xml version="1.0" encoding="utf-8"?>
<!-- Generator: Adobe Illustrator 18.0.0, SVG Export Plug-In . SVG Version: 6.00 Build 0)  -->
<!DOCTYPE svg PUBLIC "-//W3C//DTD SVG 1.1//EN" "http://www.w3.org/Graphics/SVG/1.1/DTD/svg11.dtd">
<svg version="1.1" id="Layer_1" xmlns="http://www.w3.org/2000/svg" xmlns:xlink="http://www.w3.org/1999/xlink" x="0px" y="0px"
	 viewBox="0 0 75 90" enable-background="new 0 0 75 90" xml:space="preserve">
<g>
	<g>
		<path fill="#C7B299" d="M34.7,16.6H12.1l0,0.2c0.2,3.3,0.8,5,1.8,7.2l0.1,0.1h20.9v-7.6H34.7z M34.5,17c0,0.4,0,6.4,0,6.8
			c-0.4,0-20,0-20.3,0c-1-2.3-1.5-3.8-1.7-6.8C12.9,17,34.1,17,34.5,17z"/>
	</g>
	<rect x="42" y="73" fill="#C7B299" width="28" height="4"/>
	<rect x="42" y="67.9" fill="#C7B299" width="26.4" height="3.8"/>
	<rect x="41.9" y="63.2" fill="#C7B299" width="25.3" height="3.7"/>
	<rect x="42" y="58.9" fill="#C7B299" width="22.6" height="3.3"/>
	<rect x="42" y="55.2" fill="#C7B299" width="20" height="3"/>
	<rect x="42" y="52.1" fill="#C7B299" width="16.8" height="2.4"/>
	<rect x="42" y="49" fill="#C7B299" width="13.6" height="2.4"/>
	<rect x="42" y="46.3" fill="#C7B299" width="10.1" height="2.1"/>
	<rect x="42" y="43.9" fill="#C7B299" width="6.8" height="1.7"/>
	<rect x="42" y="41.6" fill="#C7B299" width="3.8" height="1.7"/>
	<g>
		<path fill="#C7B299" d="M34.7,26.2H14.8l0.2,0.3c1,1.5,2,3.1,3.5,4.6l0,0h16.2v-4.9H34.7z M34.5,26.6c0,0.3,0,4,0,4.3
			c-0.3,0-15.6,0-15.8,0c-1.4-1.4-2.4-2.9-3.3-4.3C16,26.6,34.2,26.6,34.5,26.6z"/>
	</g>
	<g>
		<path fill="#C7B299" d="M34.8,33.2H20.3l1.7,1.5c0.7,0.6,1.4,1.3,2.3,2l0,0H35v-3.5H34.8z M34.6,33.5c0,0.3,0,2.6,0,2.8
			c-0.3,0-10.1,0-10.2,0c-0.9-0.6-1.6-1.2-2.2-1.9c0,0-0.7-0.6-1-0.9C21.9,33.5,34.3,33.5,34.6,33.5z"/>
	</g>
	<g>
		<path fill="#C7B299" d="M34.8,38.6h-8.3l1.7,1.2l2.2,1.5l0,0h4.5v-2.8H34.8z M34.7,38.9c0,0.2,0,2,0,2.2c-0.3,0-4.1,0-4.2,0
			c-0.1,0-2.1-1.5-2.1-1.5s-0.6-0.5-1-0.7C28.1,38.9,34.4,38.9,34.7,38.9z"/>
	</g>
	<g>
		<path fill="#C7B299" d="M35,43.2h-2.8l0.3,0.2c1,0.7,1.8,1.6,2.4,3l0.2,0L35,43.2L35,43.2z M34.9,43.4c0,0.2,0,2.1,0,2.6
			c-0.6-1.1-1.3-2-2.1-2.6C33.1,43.4,34.7,43.4,34.9,43.4z"/>
	</g>
	<path fill="#C7B299" d="M5.2,11.6v0.8h0.9V13C7.2,13,8,13.9,8,14.8h0.7c0.1,9.2,4.7,16,11.8,22.4c4.2,3.8,10.8,7.3,15,15.2v24.5
		h5.2V14.8h0.7v0h0v0c0-0.9,0.9-1.8,1.9-1.8v-0.6h0.9v-0.8L5.2,11.6z M35.5,48.1c-1-2-2.4-3.9-4.3-5.3h4.3V48.1z M35.5,41.7h-5.4
		c-1.7-1.2-3.3-2.4-4.8-3.6h10.2V41.7z M35.5,37.1H24c-1.7-1.4-3.3-2.9-4.8-4.3h16.2V37.1z M35.5,31.7H18.2
		c-1.7-1.9-3.2-3.9-4.3-6.1h21.5V31.7z M35.5,24.6h-22c-1.2-2.7-2-5.5-2.2-8.8h24.2V24.6z M37.2,76.2h-0.4V16h0.4V76.2z M39.6,76.2
		h-0.4V16h0.4V76.2z"/>
</g>
</svg>
