<?xml version="1.0" encoding="utf-8"?>
<!-- Generator: Adobe Illustrator 18.1.0, SVG Export Plug-In . SVG Version: 6.00 Build 0)  -->
<svg version="1.1" xmlns="http://www.w3.org/2000/svg" xmlns:xlink="http://www.w3.org/1999/xlink" x="0px" y="0px"
	 viewBox="0 0 120 120" enable-background="new 0 0 120 120" xml:space="preserve">
<g id="Layer_1">
	<path fill="#927F6B" d="M87.2,114.3H32.8c-14.9,0-27.2-12.2-27.2-27.2V32.8c0-14.9,12.2-27.2,27.2-27.2h54.3
		c14.9,0,27.2,12.2,27.2,27.2v54.3C114.3,102.2,102.1,114.3,87.2,114.3z"/>
	<polygon fill="#2A201B" points="60.2,71.5 60.1,47.3 81.2,59.3 	"/>
	<polygon fill="#C9B399" points="39.2,83.7 39.2,59.4 60.1,71.5 	"/>
	<polygon fill="#C9B399" points="39.2,59.4 39.2,35.2 60.1,47.3 	"/>
	<polygon fill="#C9B399" points="81.1,35.2 81.2,59.4 60.1,47.3 	"/>
	<polygon fill="#C9B399" points="60.1,23.1 60.1,47.4 39.2,35.3 	"/>
	<polygon fill="#C9B399" points="60.1,95.8 60.1,71.5 81.2,83.6 	"/>
	<polygon fill="#C9B399" points="81.2,59.4 81.2,83.7 60.1,71.5 	"/>
</g>
<g id="Layer_2" display="none">
	<path display="inline" fill="#927F6B" d="M86.9,114H32.7c-14.9,0-27-12.1-27-27V32.8c0-14.9,12.1-27,27-27h54.2
		c14.9,0,27,12.1,27,27V87C114,101.8,101.8,114,86.9,114z"/>
	<g display="inline">
		<path fill="#43342C" d="M56.4,69.7c-0.5,2.1-1.1,3.9-1.4,5.8c-1.1,5.3-3.4,9.9-6.8,14.3c-0.1,0.1-0.1,0.2-0.2,0.3
			c-0.2,0.1-0.4,0.2-0.5,0.2c-0.1,0-0.2-0.3-0.3-0.4c-0.2-1.7-0.4-3.5-0.5-5.3c-0.3-4.1,0.7-8,1.6-11.9c1.1-4.5,2.2-8.9,3.2-13.4
			c0.1-0.3,0-0.8-0.1-1.1c-1-2.9-1.2-6-0.1-8.8c0.8-2.2,2.1-3.9,4.5-4.6c3.2-0.9,5.8,1.1,5.9,4.3c0.1,2.1-0.4,4-1,6
			c-0.7,2.3-1.4,4.5-2,6.8c-0.9,3.7,2,7,5.8,6.6c2.9-0.2,5-1.9,6.6-4.1c2-2.7,2.8-5.8,3.4-8.8c0.3-2.3,0.5-4.5,0.3-6.8
			c-0.7-5.6-3.9-9.4-9.3-10.7c-5.9-1.5-11.5-0.7-16.1,3.5c-4.5,4-6.1,8.9-5.1,14.9c0.2,1.4,1,2.7,2,3.9c0.5,0.7,0.8,1.3,0.4,2.1
			c-0.2,0.8-0.4,1.6-0.7,2.4c-0.3,1.1-0.9,1.3-1.9,0.9c-2.7-1.2-4.6-3.3-5.6-6.1C36,53,37.1,46.7,41,41.3c3.5-5,8.3-7.9,14.2-9.1
			c4.9-1,9.7-1,14.5,0.9c6.5,2.5,10.8,7,12.5,13.7c0.7,2.5,0.5,5.1,0.3,7.7c-0.4,3.8-1.3,7.4-3.3,10.6c-2.4,4.3-5.8,7.3-10.5,8.5
			c-2.8,0.8-5.8,0.9-8.4-0.3C58.8,72.4,57.5,71.4,56.4,69.7z"/>
	</g>
</g>
<g id="Layer_3" display="none">
	<path display="inline" fill="#927F6B" d="M86.4,113.7H32.7c-14.9,0-26.8-12.1-26.8-26.8V33.1C5.9,18.2,18,6.2,32.7,6.2h53.7
		c14.9,0,26.8,12.1,26.8,26.8v53.7C113.4,101.6,101.2,113.7,86.4,113.7z"/>
	<g display="inline">
		<path fill="#43342C" d="M52.4,48.3c0-2.1,0-4.1,0-6c0-4.9,3-9.2,7.5-11.1c1.6-0.7,3.3-1,5-1c2.5,0,5,0,7.4,0c1,0,1.8,0.1,2.8,0.1
			c0,3.5,0,6.7,0,10.2c-1.5,0-3,0.1-4.6,0c-2.3-0.2-4.3,1.4-4.8,3.6c-0.2,1.2-0.1,2.5-0.1,3.8c0,0.1,0.5,0.4,0.8,0.4
			c2.6,0,5.1,0,7.6,0c0.3,0,0.5,0,1,0c0,3.5,0,6.7,0,10.2c-3,0-6.1,0-9.4,0c0,5.2,0,10.3,0,15.5s0,10.3,0,15.5c-0.3,0-0.5,0-0.9,0
			c-3.9,0-7.7,0-11.6,0c-0.8,0-1-0.2-1-1c0-9.7,0-19.2,0-28.9c0-0.3,0-0.7,0-1.2c-0.3,0-0.7,0-1,0c-2.3,0-4.6,0-6.7,0
			c-0.7,0-0.9-0.1-0.9-0.8c0-2.9,0-5.7,0-8.6c0-0.7,0.2-0.9,0.9-0.9C47.3,48.3,49.8,48.3,52.4,48.3z"/>
	</g>
</g>
</svg>
