<?xml version="1.0" encoding="utf-8"?>
<!-- Generator: Adobe Illustrator 18.0.0, SVG Export Plug-In . SVG Version: 6.00 Build 0)  -->
<!DOCTYPE svg PUBLIC "-//W3C//DTD SVG 1.1//EN" "http://www.w3.org/Graphics/SVG/1.1/DTD/svg11.dtd">
<svg version="1.1" id="Layer_1" xmlns="http://www.w3.org/2000/svg" xmlns:xlink="http://www.w3.org/1999/xlink" x="0px" y="0px"
	 viewBox="0 0 300 262" enable-background="new 0 0 300 262" xml:space="preserve">
<g>
	<path fill="#AD9589" d="M273.1,185.6c-0.1,29.9-76,20.7-97.6,26.4c-21.6,5.6-23.7,36.3-23.7,36.3s-5.6-34.3-28.5-36.3
		c-23-2-94.7,14.7-94.7-28.5V76.2C28.5,34.5,83.8,45,116,46c32.2,1,35.4-34,35.4-34s0.4,35.7,42.8,36.4s78.8-6.1,78.8,31.1
		C273.1,79.5,273.2,155.6,273.1,185.6z"/>
	<g>
		<g>
			<path fill="#42322B" d="M277.2,171.5l-6.8,0.4c0-3.4-0.3-90.7-0.7-93.6c-1.1-7.6-3.5-13.1-7.2-16.4c-5.1-4.5-15.3-6.8-30.5-6.8
				h-21.3c-21.5,0-36.2-2.7-44.2-8c-7.9-5.4-13.4-15.3-16.3-29.8c-2.8,14.5-8.1,24.4-15.9,29.8c-7.8,5.4-22.4,8-43.8,8h-21
				c-15,0-25,2.3-30.1,6.8c-5.1,4.5-7.7,13.1-7.9,25.8l0.8,85h-6.8l-0.7-86.1c0-2.8,0.1-5.5,0.3-8.1c0.9-13.4,4.4-22.9,10.2-28.5
				c7-6.7,20.1-10,39.3-10h31.6c14.8,0,24.9-2.5,30.5-7.4c5.6-5,9-14.3,10.3-28.1h6.7c1.4,14.1,5,23.5,10.5,28.3
				c5.6,4.8,15.8,7.2,30.7,7.2h32.1c19.3,0,32.4,3.3,39.5,10c5.7,5.3,9.1,14.2,10.2,26.7c0.3,3.1,0.4,6.4,0.4,9.9L277.2,171.5z"/>
		</g>
		<g>
			<path fill="#42322B" d="M25.6,170.3l6.7,0.1c0.1,12.6,2.7,21.2,7.8,25.8c5.1,4.5,15.2,6.8,30.4,6.8h21.3c21.4,0,36.1,2.7,44,8.1
				c7.9,5.4,13.3,15.3,16.3,29.8c2.8-14.5,8.1-24.4,15.9-29.8c7.8-5.4,22.3-8.1,43.7-8.1h21c14.9,0,24.9-2.3,30-6.8
				c5-4.5,7.7-13.1,7.8-25.8l6.7-0.1v1.2c0,17.7-3.5,29.9-10.5,36.6c-7,6.7-20.1,10-39.2,10H196c-14.7,0-24.9,2.5-30.5,7.4
				c-5.6,5-9,14.3-10.2,28.1h-6.7c-1.4-14.1-4.9-23.5-10.5-28.3c-5.5-4.8-15.7-7.2-30.6-7.2h-32c-19.2,0-32.3-3.3-39.4-10
				c-7.1-6.7-10.6-18.8-10.6-36.6V170.3z"/>
		</g>
	</g>
	<g>
		<path fill="#2A1F1A" d="M79.6,92.9c-1.1,0.3-2.4,0.6-3.9,0.6c-3.8,0-5.7-2.7-5.7-6.6s1.9-6.7,5.7-6.7c1.5,0,2.6,0.3,3.7,0.6
			l-0.2,2.7l-1.1-0.1v-0.9c0-0.2-0.1-0.5-0.2-0.9c-0.7-0.2-1.6-0.4-2.3-0.4c-2.6,0-3.9,2.5-3.9,5.6s1.3,5.6,3.9,5.6
			c0.7,0,1.7-0.2,2.5-0.4c0.1-0.4,0.3-0.8,0.3-1c0-0.2,0-0.9,0-0.9l1.1,0L79.6,92.9z"/>
		<path fill="#2A1F1A" d="M80.7,79.5c0,0,1.3,0.1,1.7,0.1h1l0.3,0.3c-0.1,0.6-0.1,1.9-0.1,2.8v7.6c0,0.8,0.1,1.8,0.1,1.9l1.4,0.1
			L85,93.3c0,0-0.9-0.1-2.3-0.1c-0.4,0-2,0.1-2,0.1l-0.1-0.9l1.4-0.3c0-0.2,0.2-1,0.2-1.4v-8.6c0-0.4-0.2-1.4-0.2-1.4l-1.4-0.3
			L80.7,79.5z"/>
		<path fill="#2A1F1A" d="M90.6,93.3c0,0-0.9-0.1-2.3-0.1c-0.4,0-2,0.1-2,0.1l-0.1-0.9l1.4-0.3c0,0,0.2-1,0.2-1.4v-3.9
			c0-0.4-0.2-1.4-0.2-1.4l-1.4-0.3l0.1-1c0,0,1.3,0.1,1.7,0.1h1l0.3,0.3c0,0-0.1,1.9-0.1,2.8v2.8c0,0.9,0.1,1.9,0.1,1.9l1.4,0.1
			L90.6,93.3z M89.6,81.4c0,0.7-0.4,1.2-1.1,1.2c-0.7,0-1.1-0.5-1.1-1.2s0.4-1.2,1.1-1.2C89.2,80.2,89.6,80.6,89.6,81.4z"/>
		<path fill="#2A1F1A" d="M98.7,84.8L98.5,87l-1-0.1v-0.7c0-0.1-0.1-0.4-0.1-0.6c-0.5-0.4-1-0.5-1.5-0.5c-1.8,0-2.5,1.8-2.5,3.6
			c0,1.8,0.7,3.5,2.5,3.5c1.4,0,2.5-0.7,2.5-0.7l0.5,0.9c0,0-1.2,1-3.1,1c-2.8,0-4.1-1.9-4.1-4.6c0-2.8,1.4-4.7,4.2-4.7
			C97,84.1,97.6,84.4,98.7,84.8z"/>
		<path fill="#2A1F1A" d="M99.9,79.5c0,0,1.3,0.1,1.7,0.1h1l0.3,0.3c-0.1,0.6-0.1,1.9-0.1,2.8v7.6c0,0.8,0.1,1.8,0.1,1.9l1.4,0.1
			l-0.1,1.1c0,0-0.9-0.1-2.3-0.1c-0.4,0-2,0.1-2,0.1l-0.1-0.9l1.4-0.3c0-0.2,0.2-1,0.2-1.4v-8.6c0-0.4-0.2-1.4-0.2-1.4l-1.4-0.3
			L99.9,79.5z M105.2,85.2l0.1-0.9c0,0,1.2,0.1,1.6,0.1c1.4,0,2.3-0.1,2.3-0.1l0.1,1l-1.4,0.1c-0.6,0.3-1.5,0.9-1.8,1.2l-1.5,1.6
			l2.5,2.7c0.2,0.2,1,0.8,1.6,1.2l1.1,0.1l-0.1,1.1c0,0-0.9-0.1-2.3-0.1l-1.8,0l-0.1-0.9l1-0.2l-0.9-1l-2.6-2.7l3-3.1L105.2,85.2z"
			/>
		<path fill="#2A1F1A" d="M114.3,79.5c0,0,1.3,0.1,1.7,0.1h1l0.3,0.3c-0.1,0.6-0.1,1.9-0.1,2.8v2.9c0.5-0.7,1.4-1.4,2.6-1.4
			c2.5,0,3.1,1.6,3.1,4.1v2c0,0.9,0.1,1.9,0.1,1.9l1.4,0.1l-0.1,1.1c0,0-0.9-0.1-2.3-0.1c-0.4,0-1.8,0.1-1.8,0.1l-0.1-0.9l1.2-0.3
			c0.1-0.4,0.2-0.9,0.2-1.4v-2.5c0-1.5-0.3-3-1.9-3c-1.4,0-2.3,1.3-2.3,3v1.9c0,0.8,0.1,1.8,0.1,1.9l1.4,0.1l-0.1,1.1
			c0,0-0.9-0.1-2.3-0.1c-0.4,0-2,0.1-2,0.1l-0.1-0.9l1.4-0.3c0-0.2,0.2-1,0.2-1.4v-8.6c0-0.4-0.2-1.4-0.2-1.4l-1.4-0.3L114.3,79.5z"
			/>
		<path fill="#2A1F1A" d="M132.7,88.3l-0.3,0.6H127c0.1,1.6,0.8,3.3,2.5,3.3c1.5,0,2.7-0.7,2.7-0.7l0.5,0.8c0,0-1.2,1.1-3.2,1.1
			c-2.7,0-4.2-1.9-4.2-4.6c0-2.7,1.3-4.7,3.9-4.7C131.8,84.1,132.7,85.8,132.7,88.3z M127,88l4-0.3c0,0,0-0.3,0-0.4
			c0-1.3-0.6-2.3-1.9-2.3C127.7,85.1,127.2,86.5,127,88z"/>
		<path fill="#2A1F1A" d="M136.8,85.8c0.7-1.2,1.6-1.7,2.9-1.7c0.7,0,1.2,0.2,1.2,0.2l-0.2,3l-1-0.1v-1c0-0.1-0.1-0.5-0.3-0.9h-0.1
			c-1.7,0-2.4,1-2.4,2.7v2.1c0,0.9,0.1,1.9,0.1,1.9l1.8,0.1l-0.1,1.1c0,0-1.2-0.1-2.7-0.1c-0.4,0-2,0.1-2,0.1l-0.1-0.9l1.4-0.3
			c0,0,0.2-1,0.2-1.4v-3.9c0-0.4-0.2-1.4-0.2-1.4l-1.4-0.3l0.1-1c0,0,1.3,0.1,1.7,0.1h0.7l0.3,0.3L136.8,85.8z"/>
		<path fill="#2A1F1A" d="M149,88.3l-0.3,0.6h-5.4c0.1,1.6,0.8,3.3,2.5,3.3c1.5,0,2.7-0.7,2.7-0.7l0.5,0.8c0,0-1.2,1.1-3.2,1.1
			c-2.7,0-4.2-1.9-4.2-4.6c0-2.7,1.3-4.7,3.9-4.7C148.1,84.1,149,85.8,149,88.3z M143.3,88l4-0.3c0,0,0-0.3,0-0.4
			c0-1.3-0.6-2.3-1.9-2.3C144,85.1,143.5,86.5,143.3,88z"/>
		<path fill="#2A1F1A" d="M159.8,92.5c-0.6,0.5-1.2,0.9-2.1,0.9c-1.7,0-2.2-1-2.2-3v-5.1H154l-0.1-0.8c0.6-0.2,1-0.3,1.4-0.5
			c0.1-0.2,0.8-1.6,0.8-1.6l0.6,0.1v1.9h2.5l-0.1,1h-2.4v5.6c0,0.9,0.3,1.4,1,1.4c0.7,0,1.4-0.5,1.4-0.5L159.8,92.5z"/>
		<path fill="#2A1F1A" d="M164.7,93.4c-2.8,0-4.2-1.9-4.2-4.6c0-2.8,1.4-4.7,4.2-4.7c2.8,0,4.2,1.8,4.2,4.7
			C168.9,91.5,167.5,93.4,164.7,93.4z M164.7,85.2c-1.9,0-2.5,1.8-2.5,3.6c0,1.9,0.6,3.6,2.5,3.6s2.5-1.7,2.5-3.6
			C167.2,86.9,166.6,85.2,164.7,85.2z"/>
		<path fill="#2A1F1A" d="M180.2,84.4L180,87l-1-0.1v-0.7c0-0.2-0.1-0.6-0.3-1c-0.4-0.2-0.7-0.2-1.2-0.2c-0.9,0-1.5,0.4-1.5,1.2
			c0,1.8,4.6,1.7,4.6,4.5c0,1.9-1.2,2.6-3.2,2.6c-1.8,0-3-0.7-3-0.7l0.2-2.5l1,0.1V91c0,0.2,0.1,0.7,0.3,1.1
			c0.4,0.3,0.9,0.4,1.5,0.4c1,0,1.6-0.4,1.6-1.4c0-1.9-4.6-1.6-4.6-4.6c0-1.5,1.2-2.4,2.9-2.4C178.3,84.1,179.3,84.3,180.2,84.4z"/>
		<path fill="#2A1F1A" d="M189.4,88.3l-0.3,0.6h-5.4c0.1,1.6,0.8,3.3,2.5,3.3c1.5,0,2.7-0.7,2.7-0.7l0.5,0.8c0,0-1.2,1.1-3.2,1.1
			c-2.7,0-4.2-1.9-4.2-4.6c0-2.7,1.3-4.7,3.9-4.7C188.5,84.1,189.4,85.8,189.4,88.3z M183.7,88l4-0.3c0,0,0-0.3,0-0.4
			c0-1.3-0.6-2.3-1.9-2.3C184.4,85.1,183.9,86.5,183.7,88z"/>
		<path fill="#2A1F1A" d="M198.1,88.3l-0.3,0.6h-5.4c0.1,1.6,0.8,3.3,2.5,3.3c1.5,0,2.7-0.7,2.7-0.7l0.5,0.8c0,0-1.2,1.1-3.2,1.1
			c-2.7,0-4.2-1.9-4.2-4.6c0-2.7,1.3-4.7,3.9-4.7C197.2,84.1,198.1,85.8,198.1,88.3z M192.4,88l4-0.3c0,0,0-0.3,0-0.4
			c0-1.3-0.6-2.3-1.9-2.3C193.1,85.1,192.5,86.5,192.4,88z"/>
		<path fill="#2A1F1A" d="M207.5,93.4c-2.8,0-4.2-1.9-4.2-4.6c0-2.8,1.4-4.7,4.2-4.7c2.8,0,4.2,1.8,4.2,4.7
			C211.7,91.5,210.3,93.4,207.5,93.4z M207.5,85.2c-1.9,0-2.5,1.8-2.5,3.6c0,1.9,0.6,3.6,2.5,3.6c1.9,0,2.5-1.7,2.5-3.6
			C210,86.9,209.4,85.2,207.5,85.2z"/>
		<path fill="#2A1F1A" d="M218.4,84.2c0,0,1.2,0.1,1.6,0.1h1l0.3,0.3c0,0-0.1,1.9-0.1,2.8v2.8c0,0.9,0.2,1.9,0.2,1.9l1.2,0.1
			l-0.1,1.1c0,0-0.9-0.1-2.3-0.1l-0.2-1.4c-0.3,0.6-1.1,1.6-2.8,1.6c-2.5,0-2.9-1.7-2.9-4.1v-2.5c0-0.4-0.2-1.4-0.2-1.4l-1.2-0.3
			l0.1-1c0,0,1.1,0.1,1.5,0.1h1l0.3,0.3c0,0-0.1,1.9-0.1,2.8v2.5c0,1.3,0.5,2.3,1.8,2.3c1.5,0,2.3-1.4,2.3-2.8v-2.6
			c0-0.4-0.2-1.4-0.2-1.4l-1.3-0.3L218.4,84.2z"/>
		<path fill="#2A1F1A" d="M226.7,85.8c0.7-1.2,1.6-1.7,2.9-1.7c0.7,0,1.2,0.2,1.2,0.2l-0.2,3l-1-0.1v-1c0-0.1-0.1-0.5-0.3-0.9h-0.1
			c-1.7,0-2.4,1-2.4,2.7v2.1c0,0.9,0.1,1.9,0.1,1.9l1.8,0.1l-0.1,1.1c0,0-1.2-0.1-2.7-0.1c-0.4,0-2,0.1-2,0.1l-0.1-0.9l1.4-0.3
			c0,0,0.2-1,0.2-1.4v-3.9c0-0.4-0.2-1.4-0.2-1.4l-1.4-0.3l0.1-1c0,0,1.3,0.1,1.7,0.1h0.7l0.3,0.3L226.7,85.8z"/>
		<path fill="#2A1F1A" d="M97.3,108.4c2.9,0,5.6-0.2,5.6-0.2l0.1,2.1l-2.9,0.3c-0.1,0.4-0.1,2.1-0.1,2.7l1.2,15.8
			c0.1,0.6,0.5,2.1,0.6,2.6l2.9,0.3l-0.2,2.1c0,0-2.4-0.2-5.3-0.2c-0.7,0-4.3,0.2-4.3,0.2l-0.2-1.8l2.8-0.6c0-0.5,0.2-2.6,0.2-3.7
			l-1-15.3l-7.9,21.1h-1.3l-7.9-21.1L78.8,128c0,1,0.1,3.1,0.2,3.7l2.9,0.3l-0.3,2.1c0,0-1.8-0.2-4.7-0.2c-0.7,0-3.9,0.2-3.9,0.2
			l-0.2-1.8l2.8-0.6c0.1-0.5,0.5-2,0.6-2.6l0.9-15.8c0-0.6-0.1-2.2-0.1-2.7l-3-0.4l0.2-2c0,0,4.3,0.2,5,0.1h2l0.7,0.8
			c0,0,1.6,4.8,1.9,5.6l4.8,12.8l4.9-13.1c0.4-0.8,1.9-5.4,1.9-5.4l0.7-0.7H97.3z"/>
		<path fill="#2A1F1A" d="M114.6,134.3c-5.5,0-8.3-3.8-8.3-9.3c0-5.5,2.8-9.3,8.3-9.3c5.6,0,8.3,3.7,8.3,9.3
			C122.9,130.5,120.1,134.3,114.6,134.3z M114.6,117.7c-3.7,0-4.9,3.5-4.9,7.2c0,3.7,1.2,7.2,4.9,7.2s4.9-3.5,4.9-7.2
			C119.5,121.3,118.3,117.7,114.6,117.7z"/>
		<path fill="#2A1F1A" d="M136.3,115.9c0,0,2.4,0.1,3.2,0.1h2.1l0.7,0.7c0,0-0.3,3.7-0.3,5.5v5.6c0,1.8,0.4,3.8,0.4,3.8l2.5,0.3
			l-0.3,2.1c0,0-1.8-0.2-4.7-0.2l-0.5-2.8c-0.7,1.2-2.2,3.2-5.6,3.2c-5,0-5.9-3.3-5.9-8.2v-4.9c0-0.7-0.4-2.8-0.4-2.8l-2.4-0.6
			l0.2-1.9c0,0,2.2,0.1,3,0.1h2.1l0.7,0.7c0,0-0.3,3.7-0.3,5.5v5.1c0,2.7,0.9,4.7,3.6,4.7c3,0,4.6-2.8,4.6-5.6v-5.2
			c0-0.7-0.4-2.8-0.4-2.8l-2.6-0.6L136.3,115.9z"/>
		<path fill="#2A1F1A" d="M146.7,106.4c0,0,2.6,0.1,3.3,0.1h2.1l0.7,0.7c-0.1,1.1-0.3,3.8-0.3,5.5v15.1c0,1.6,0.2,3.5,0.2,3.8
			l2.8,0.3l-0.3,2.1c0,0-1.8-0.2-4.7-0.2c-0.7,0-4,0.2-4,0.2l-0.2-1.8l2.8-0.6c0.1-0.3,0.4-2,0.4-2.8v-17.3c0-0.7-0.4-2.8-0.4-2.8
			l-2.8-0.6L146.7,106.4z"/>
		<path fill="#2A1F1A" d="M175.6,134.1c0,0-1.8-0.2-4.7-0.2l-0.5-2.9c-0.7,1.7-3.3,3.3-5.2,3.3c-4.5,0-7.3-3.5-7.3-9.3
			c0-5.7,2.9-9.3,7.6-9.3c1.5,0,2.6,0.2,4.5,0.9v-4.9c0-0.7-0.4-2.8-0.4-2.8l-3.2-0.6l0.2-1.9c0,0,3,0.1,3.8,0.1h2.1l0.7,0.7
			c0,0-0.3,3.7-0.3,5.5v15.1c0,1.8,0.4,3.8,0.4,3.8l2.5,0.3L175.6,134.1z M170,119.2c-1.4-0.9-2.6-1.3-4.2-1.3
			c-2.9,0-4.6,2.6-4.6,7.1c0,4.3,1.6,7,4.2,7c2.9,0,4.6-2.1,4.6-5.5V119.2z"/>
		<path fill="#2A1F1A" d="M187,134.1c0,0-1.8-0.2-4.7-0.2c-0.7,0-4,0.2-4,0.2l-0.2-1.8l2.8-0.6c0,0,0.4-2,0.4-2.8v-7.8
			c0-0.7-0.4-2.8-0.4-2.8l-2.8-0.6l0.2-1.9c0,0,2.6,0.1,3.3,0.1h2.1l0.7,0.7c0,0-0.3,3.7-0.3,5.5v5.6c0,1.8,0.3,3.8,0.3,3.8l2.8,0.3
			L187,134.1z M184.8,110.2c0,1.4-0.8,2.3-2.1,2.3s-2.1-0.9-2.1-2.3s0.8-2.4,2.1-2.4C184,107.8,184.8,108.7,184.8,110.2z"/>
		<path fill="#2A1F1A" d="M189.2,115.9c0,0,2.6,0.1,3.3,0.1h1.3l0.7,0.7l0.2,2.3c0.9-1.7,2.8-3.3,5.5-3.3c5,0,6.1,3.2,6.1,8.2v3.9
			c0,1.8,0.3,3.8,0.3,3.8l2.8,0.3l-0.3,2.1c0,0-1.8-0.2-4.7-0.2c-0.7,0-3.7,0.2-3.7,0.2l-0.2-1.8l2.4-0.6c0.2-0.8,0.4-1.8,0.4-2.8
			v-5c0-3-0.7-6-3.7-6c-2.9,0-4.6,2.5-4.6,6.1v3.9c0,1.8,0.3,3.8,0.3,3.8l2.8,0.3l-0.3,2.1c0,0-1.8-0.2-4.7-0.2c-0.7,0-4,0.2-4,0.2
			l-0.2-1.8l2.8-0.6c0,0,0.3-1.7,0.4-2.6v-8c0-0.7-0.4-2.8-0.4-2.8l-2.8-0.6L189.2,115.9z"/>
		<path fill="#2A1F1A" d="M224,117.7c1.1,1.1,1.7,2.7,1.7,4.5c0,3.9-2.8,6.6-7,6.6c-0.9,0-1.7-0.1-2.5-0.3c-0.7,0.8-1,1.3-1,1.5
			c0,0.7,0.7,0.9,3.4,1.3c2.5,0.3,5.6,0.7,7,1.1c1.1,0.3,1.6,1.4,1.6,3.1c0,3.8-4.1,6.9-9.2,6.9c-4.7,0-7.2-1.8-7.2-5.2
			c0-0.7,1.4-2.1,3.3-3.7c-1.3-0.5-1.8-1.4-1.8-2.6c0-0.5,0.8-1.4,2.6-2.9c-2-1.1-3.3-3.1-3.3-5.7c0-3.9,2.8-6.6,7-6.6
			c1.4,0,2.7,0.3,3.8,0.9l4.4-0.7v2.1L224,117.7z M214.1,136.8c0,2.5,1.6,3.6,5.1,3.6c3,0,5.1-1.5,5.1-3.7c0-1.1-0.3-1.5-1.4-1.6
			l-4.7-0.6c-1-0.1-1.8-0.3-2.5-0.4C214.3,135.5,214.1,136.1,214.1,136.8z M214.9,122.2c0,3.1,1.3,4.7,3.8,4.7
			c2.6,0,3.8-1.6,3.8-4.7c0-3.2-1.3-4.7-3.8-4.7C216.2,117.5,214.9,119.1,214.9,122.2z"/>
		<path fill="#2A1F1A" d="M110.6,173.9c-2.3,0.6-4.9,1.2-7.8,1.2c-7.6,0-11.5-5.4-11.5-13.3c0-7.9,3.9-13.3,11.5-13.3
			c3,0,5.2,0.7,7.5,1.2l-0.4,5.4l-2.1-0.1v-1.7c0-0.3-0.2-1.1-0.4-1.8c-1.4-0.5-3.2-0.8-4.6-0.8c-5.2,0-7.7,4.9-7.7,11.2
			c0,6.3,2.5,11.2,7.7,11.2c1.5,0,3.4-0.3,4.9-0.8c0.3-0.8,0.5-1.7,0.5-2c0.1-0.4,0.1-1.7,0.1-1.7l2.1-0.1L110.6,173.9z"/>
		<path fill="#2A1F1A" d="M124.5,171.7c-0.9,1.8-3.4,3.2-5.8,3.2c-3.2,0-5.3-1.8-5.3-4.6c0-2.6,1.6-4.3,4.9-4.8l5.8-1v-1.2
			c0-3.4-1.1-5-3.4-5c-1.2,0-2.5,0.3-3.4,0.7l-0.3,1.5v1.5l-2.1,0.1l-0.4-4.9c2.2-0.6,4.4-0.9,6.6-0.9c4.3,0,6,2.1,6,7.7v4.5
			c0,1.8,0.4,3.8,0.4,3.8l2.5,0.3l-0.3,2.1c0,0-1.8-0.2-4.7-0.2L124.5,171.7z M119,167.3c-1.4,0.3-2.3,1.2-2.3,2.4
			c0,1.8,0.9,2.9,2.6,2.9c2.4,0,4.5-1.7,4.8-4.1v-2.2L119,167.3z"/>
		<path fill="#2A1F1A" d="M143,173c-1.2,0.9-2.5,1.9-4.3,1.9c-3.4,0-4.5-2-4.5-6v-10.3h-2.8l-0.1-1.5c1.2-0.4,2.1-0.5,2.9-1
			c0.3-0.4,1.7-3.3,1.7-3.3l1.3,0.1v3.7h5.1l-0.2,2h-4.9v11.2c0,1.8,0.6,2.8,2,2.8c1.3,0,2.9-1,2.9-1L143,173z"/>
		<path fill="#2A1F1A" d="M155.7,171.7c-0.9,1.8-3.4,3.2-5.8,3.2c-3.2,0-5.3-1.8-5.3-4.6c0-2.6,1.6-4.3,4.9-4.8l5.8-1v-1.2
			c0-3.4-1.1-5-3.4-5c-1.2,0-2.5,0.3-3.4,0.7l-0.3,1.5v1.5l-2.1,0.1l-0.4-4.9c2.2-0.6,4.4-0.9,6.6-0.9c4.3,0,6,2.1,6,7.7v4.5
			c0,1.8,0.4,3.8,0.4,3.8l2.5,0.3l-0.3,2.1c0,0-1.8-0.2-4.7-0.2L155.7,171.7z M150.1,167.3c-1.4,0.3-2.3,1.2-2.3,2.4
			c0,1.8,0.9,2.9,2.6,2.9c2.4,0,4.5-1.7,4.8-4.1v-2.2L150.1,167.3z"/>
		<path fill="#2A1F1A" d="M162.6,147c0,0,2.6,0.1,3.3,0.1h2.1l0.7,0.7c-0.1,1.1-0.3,3.8-0.3,5.5v15.1c0,1.6,0.2,3.5,0.2,3.8l2.8,0.3
			l-0.3,2.1c0,0-1.8-0.2-4.7-0.2c-0.7,0-4,0.2-4,0.2l-0.2-1.8l2.8-0.6c0.1-0.3,0.4-2,0.4-2.8v-17.3c0-0.7-0.4-2.8-0.4-2.8l-2.8-0.6
			L162.6,147z"/>
		<path fill="#2A1F1A" d="M182.1,174.9c-5.5,0-8.3-3.8-8.3-9.3c0-5.5,2.8-9.3,8.3-9.3c5.6,0,8.3,3.7,8.3,9.3
			C190.4,171.2,187.6,174.9,182.1,174.9z M182.1,158.4c-3.7,0-4.9,3.5-4.9,7.2s1.2,7.2,4.9,7.2s4.9-3.5,4.9-7.2
			S185.8,158.4,182.1,158.4z"/>
		<path fill="#2A1F1A" d="M206.2,158.4c1.1,1.1,1.7,2.7,1.7,4.5c0,3.9-2.8,6.6-7,6.6c-0.9,0-1.7-0.1-2.5-0.3c-0.7,0.8-1,1.3-1,1.5
			c0,0.7,0.7,0.9,3.4,1.3c2.5,0.3,5.6,0.7,7,1.1c1.1,0.3,1.6,1.4,1.6,3.1c0,3.8-4.1,6.9-9.2,6.9c-4.7,0-7.2-1.8-7.2-5.2
			c0-0.7,1.4-2.1,3.3-3.7c-1.3-0.5-1.8-1.4-1.8-2.6c0-0.5,0.8-1.4,2.6-2.9c-2-1.1-3.3-3.1-3.3-5.7c0-3.9,2.8-6.6,7-6.6
			c1.4,0,2.7,0.3,3.8,0.9l4.4-0.7v2.1L206.2,158.4z M196.2,177.4c0,2.5,1.6,3.6,5.1,3.6c3,0,5.1-1.5,5.1-3.7c0-1.1-0.3-1.5-1.4-1.6
			l-4.7-0.6c-1-0.1-1.8-0.3-2.5-0.4C196.5,176.2,196.2,176.7,196.2,177.4z M197,162.9c0,3.2,1.3,4.7,3.8,4.7c2.6,0,3.8-1.6,3.8-4.7
			s-1.3-4.7-3.8-4.7C198.3,158.2,197,159.8,197,162.9z"/>
	</g>
</g>
</svg>
