<?xml version="1.0" encoding="utf-8"?>
<!-- Generator: Adobe Illustrator 18.1.0, SVG Export Plug-In . SVG Version: 6.00 Build 0)  -->
<svg version="1.1" id="Layer_1" xmlns="http://www.w3.org/2000/svg" xmlns:xlink="http://www.w3.org/1999/xlink" x="0px" y="0px"
	 viewBox="0 0 120 120" enable-background="new 0 0 120 120" xml:space="preserve">
<circle fill="#C7B299" cx="60" cy="60.3" r="58.7"/>
<g>
	<path fill="#43332B" d="M56.4,69.7c-0.5,2.1-1.1,3.9-1.4,5.8c-1.1,5.3-3.4,9.9-6.8,14.3c-0.1,0.1-0.1,0.2-0.2,0.3
		c-0.2,0.1-0.4,0.2-0.5,0.2c-0.1,0-0.2-0.3-0.3-0.4c-0.2-1.7-0.4-3.5-0.5-5.3c-0.3-4.1,0.7-8,1.6-11.9c1.1-4.5,2.2-8.9,3.2-13.4
		c0.1-0.3,0-0.8-0.1-1.1c-1-2.9-1.2-6-0.1-8.8c0.8-2.2,2.1-3.9,4.5-4.6c3.2-0.9,5.8,1.1,5.9,4.3c0.1,2.1-0.4,4-1,6
		c-0.7,2.3-1.4,4.5-2,6.8c-0.9,3.7,2,7,5.8,6.6c2.9-0.2,5-1.9,6.6-4.1c2-2.7,2.8-5.8,3.4-8.8c0.3-2.3,0.5-4.5,0.3-6.8
		c-0.7-5.6-3.9-9.4-9.3-10.7c-5.9-1.5-11.5-0.7-16.1,3.5c-4.5,4-6.1,8.9-5.1,14.9c0.2,1.4,1,2.7,2,3.9c0.5,0.7,0.8,1.3,0.4,2.1
		c-0.2,0.8-0.4,1.6-0.7,2.4c-0.3,1.1-0.9,1.3-1.9,0.9c-2.7-1.2-4.6-3.3-5.6-6.1C36,53,37.1,46.7,41,41.3c3.5-5,8.3-7.9,14.2-9.1
		c4.9-1,9.7-1,14.5,0.9c6.5,2.5,10.8,7,12.5,13.7c0.7,2.5,0.5,5.1,0.3,7.7c-0.4,3.8-1.3,7.4-3.3,10.6c-2.4,4.3-5.8,7.3-10.5,8.5
		c-2.8,0.8-5.8,0.9-8.4-0.3C58.8,72.4,57.5,71.4,56.4,69.7z"/>
</g>
</svg>
