<?xml version="1.0" encoding="utf-8"?>
<!-- Generator: Adobe Illustrator 18.0.0, SVG Export Plug-In . SVG Version: 6.00 Build 0)  -->
<!DOCTYPE svg PUBLIC "-//W3C//DTD SVG 1.1//EN" "http://www.w3.org/Graphics/SVG/1.1/DTD/svg11.dtd">
<svg version="1.1" id="Layer_1" xmlns="http://www.w3.org/2000/svg" xmlns:xlink="http://www.w3.org/1999/xlink" x="0px" y="0px"
	 viewBox="0 0 90 90" enable-background="new 0 0 90 90" xml:space="preserve">
<circle fill="#C7B299" cx="45" cy="45.2" r="44"/>
<g>
	<polygon fill="#42322B" points="26.3,18.8 24.7,21.5 65.1,21.5 63.8,18.8 	"/>
	<rect x="24.7" y="21.9" fill="#42322B" width="40.5" height="5.9"/>
	<polygon fill="#42322B" points="23.7,29.5 21.8,32.5 67.8,32.5 66.3,29.5 	"/>
	<rect x="21.8" y="33" fill="#42322B" width="46.1" height="6.7"/>
	<polygon fill="#42322B" points="20.5,41.4 18.3,45 71.4,45 69.7,41.4 	"/>
	<rect x="18.3" y="45.6" fill="#42322B" width="53.1" height="7.7"/>
	<polygon fill="#42322B" points="18.2,55.2 15.8,59.1 74.6,59.1 72.7,55.2 	"/>
	<rect x="15.8" y="59.9" fill="#42322B" width="58.9" height="8.2"/>
</g>
</svg>
